{
   "display" : {
      "gui" : {
         "rotation" : [
            0,
            0,
            0
         ]
      },
      "firstperson" : {
         "rotation" : [
            0,
            90,
            0
         ],
         "scale" : [
            1.5,
            1.5,
            1.5
         ],
         "translation" : [
            0,
            0,
            -0.2
         ]
      },
      "thirdperson" : {
         "rotation" : [
            10,
            90,
            170
         ],
         "scale" : [
            0.375,
            0.375,
            0.375
         ],
         "translation" : [
            0,
            1.5,
            -2.75
         ]
      }
   },
   "parent" : "minefield:block/jungle_strut"
}
