{
    "parent": "minefield:block/laydown_log_jungle",
    "display": {
        "thirdperson": {
            "rotation": [ 10, 135, 170 ],
            "translation": [ 0, 1.5, -2.75 ],
            "scale": [ 0.375, 0.375, 0.375 ]
        },
        "firstperson": {
            "rotation": [ 0, 180, 0 ],
            "scale": [ 1.5, 1.5, 1.5 ]
        },
        "gui": {
            "rotation": [ 0, 0, 0 ]
        }
    }
}
