{
    "parent": "minefield:block/oxidized_brass_fence_gate_closed",
    "display": {
        "thirdperson": {
            "rotation": [ 0, -90, 170 ],
            "translation": [ 0, 1.5, -2.75 ],
            "scale": [ 0.375, 0.375, 0.375 ]
        },
        "firstperson": {
            "rotation": [ 0, 90, 0 ],
            "translation": [ 0, 0, 0 ],
            "scale": [ 1, 1, 1 ]
        }
    }
}

