{
   "parent" : "minefield:block/very_oxidized_copper_strut",
   "display" : {
      "thirdperson" : {
         "translation" : [
            0,
            1.5,
            -2.75
         ],
         "rotation" : [
            10,
            90,
            170
         ],
         "scale" : [
            0.375,
            0.375,
            0.375
         ]
      },
      "gui" : {
         "rotation" : [
            0,
            0,
            0
         ]
      },
      "firstperson" : {
         "translation" : [
            0,
            0,
            -0.2
         ],
         "scale" : [
            1.5,
            1.5,
            1.5
         ],
         "rotation" : [
            0,
            90,
            0
         ]
      }
   }
}
