{
    "variants": {
        "axis=y":  { "model": "minefield:acacia_7_carvedlog" },
        "axis=z":   { "model": "minefield:acacia_7_carvedlog_side" },
        "axis=x":   { "model": "minefield:acacia_7_carvedlog_side", "y": 90 },
        "axis=none": { "model": "acacia_bark" }
    }
}
