{
    "variants": {
        "variant=0": { "model": "minefield:alga_clay0" },
        "variant=1": { "model": "minefield:alga_clay1" },
        "variant=2": { "model": "minefield:alga_clay2" },
        "variant=3": { "model": "minefield:alga_clay3" },
        "variant=4": { "model": "minefield:alga_clay4" },
        "variant=5": { "model": "minefield:alga_clay5" },
        "variant=6": { "model": "minefield:alga_clay6" },
        "variant=7": { "model": "minefield:alga_clay7" },
        "variant=8": { "model": "minefield:alga_clay8" },
        "variant=9": { "model": "minefield:alga_clay9" },
        "variant=10": { "model": "minefield:alga_clay10" },
        "variant=11": { "model": "minefield:alga_clay11" },
        "variant=12": { "model": "minefield:alga_clay12" },
        "variant=13": { "model": "minefield:alga_clay13" },
        "variant=14": { "model": "minefield:alga_clay14" },
        "variant=15": { "model": "minefield:alga_clay15" }
    }
}
