{
    "variants": {
        "facing=east,variant=acacia":       { "model": "minefield:acacia_bench_midle" },
        "facing=west,variant=acacia":       { "model": "minefield:acacia_bench_midle", "y": 180, "uvlock": true },
        "facing=south,variant=acacia":      { "model": "minefield:acacia_bench_midle", "y": 90, "uvlock": true },
        "facing=north,variant=acacia":      { "model": "minefield:acacia_bench_midle", "y": 270, "uvlock": true },

        "facing=east,variant=dark_oak":     { "model": "minefield:dark_oak_bench_midle" },
        "facing=west,variant=dark_oak":     { "model": "minefield:dark_oak_bench_midle", "y": 180, "uvlock": true },
        "facing=south,variant=dark_oak":    { "model": "minefield:dark_oak_bench_midle", "y": 90, "uvlock": true },
        "facing=north,variant=dark_oak":    { "model": "minefield:dark_oak_bench_midle", "y": 270, "uvlock": true }
    }
}
