{
    "variants": {
        "facing=north,onground=true,variant=0":     { "model": "minefield:ground_big_leaves_1_1", "y": 180},
        "facing=east,onground=true,variant=0":      { "model": "minefield:ground_big_leaves_1_1", "y": 90},
        "facing=south,onground=true,variant=0":     { "model": "minefield:ground_big_leaves_1_1"},
        "facing=west,onground=true,variant=0":      { "model": "minefield:ground_big_leaves_1_1", "y": 270},

        "facing=north,onground=true,variant=1":     { "model": "minefield:ground_big_leaves_1_2", "y": 180},
        "facing=east,onground=true,variant=1":      { "model": "minefield:ground_big_leaves_1_2", "y": 90},
        "facing=south,onground=true,variant=1":     { "model": "minefield:ground_big_leaves_1_2"},
        "facing=west,onground=true,variant=1":      { "model": "minefield:ground_big_leaves_1_2", "y": 270},

        "facing=north,onground=false,variant=0":    { "model": "minefield:wall_big_leaves_1_1"},
        "facing=east,onground=false,variant=0":     { "model": "minefield:wall_big_leaves_1_1", "y": 90},
        "facing=south,onground=false,variant=0":    { "model": "minefield:wall_big_leaves_1_1", "y": 180},
        "facing=west,onground=false,variant=0":     { "model": "minefield:wall_big_leaves_1_1", "y": 270},

        "facing=north,onground=false,variant=1":    { "model": "minefield:wall_big_leaves_1_2"},
        "facing=east,onground=false,variant=1":     { "model": "minefield:wall_big_leaves_1_2", "y": 90},
        "facing=south,onground=false,variant=1":    { "model": "minefield:wall_big_leaves_1_2", "y": 180},
        "facing=west,onground=false,variant=1":     { "model": "minefield:wall_big_leaves_1_2", "y": 270}
    }
}
