{
    "variants": {
        "axis=y":  { "model": "minefield:birch_6_carvedlog" },
        "axis=z":   { "model": "minefield:birch_6_carvedlog_side" },
        "axis=x":   { "model": "minefield:birch_6_carvedlog_side", "y": 90 },
        "axis=none": { "model": "birch_bark" }
    }
}
