{
    "variants": {
        "position=full":            { "model": "minefield:full_sign_forgeron" },
        "position=x_axis":          { "model": "minefield:vertical_rock_sign_blacksmith", "y": 90 },
        "position=z_axis":          { "model": "minefield:vertical_rock_sign_blacksmith" },

        "position=north":           { "model": "minefield:wall_rock_sign_blacksmith", "y": 180 },
        "position=east":            { "model": "minefield:wall_rock_sign_blacksmith", "y": 90 },
        "position=south":           { "model": "minefield:wall_rock_sign_blacksmith"},
        "position=west":            { "model": "minefield:wall_rock_sign_blacksmith", "y": 270  },

        "position=bottom_north":    { "model": "minefield:horizontal_rock_sign_blacksmith" },
        "position=bottom_east":     { "model": "minefield:horizontal_rock_sign_blacksmith", "y": 90 },
        "position=bottom_south":    { "model": "minefield:horizontal_rock_sign_blacksmith", "y": 180 },
        "position=bottom_west":     { "model": "minefield:horizontal_rock_sign_blacksmith", "y": 270 },

        "position=top_west":        { "model": "minefield:horizontal_rock_sign_blacksmith", "x": 180, "y": 90 },
        "position=top_north":       { "model": "minefield:horizontal_rock_sign_blacksmith", "x": 180, "y": 180 },
        "position=top_east":        { "model": "minefield:horizontal_rock_sign_blacksmith", "x": 180, "y": 270 },
        "position=top_south":       { "model": "minefield:horizontal_rock_sign_blacksmith", "x": 180 }
    }
}
