{
    "variants": {
        "color=color_1,facing=east,half=bottom,shape=straight":  { "model": "minefield:magenta_cloth_stairs" },
        "color=color_1,facing=west,half=bottom,shape=straight":  { "model": "minefield:magenta_cloth_stairs", "y": 180, "uvlock": true },
        "color=color_1,facing=south,half=bottom,shape=straight": { "model": "minefield:magenta_cloth_stairs", "y": 90, "uvlock": true },
        "color=color_1,facing=north,half=bottom,shape=straight": { "model": "minefield:magenta_cloth_stairs", "y": 270, "uvlock": true },
        "color=color_1,facing=east,half=bottom,shape=outer_right":  { "model": "minefield:magenta_cloth_outer_stairs" },
        "color=color_1,facing=west,half=bottom,shape=outer_right":  { "model": "minefield:magenta_cloth_outer_stairs", "y": 180, "uvlock": true },
        "color=color_1,facing=south,half=bottom,shape=outer_right": { "model": "minefield:magenta_cloth_outer_stairs", "y": 90, "uvlock": true },
        "color=color_1,facing=north,half=bottom,shape=outer_right": { "model": "minefield:magenta_cloth_outer_stairs", "y": 270, "uvlock": true },
        "color=color_1,facing=east,half=bottom,shape=outer_left":  { "model": "minefield:magenta_cloth_outer_stairs", "y": 270, "uvlock": true },
        "color=color_1,facing=west,half=bottom,shape=outer_left":  { "model": "minefield:magenta_cloth_outer_stairs", "y": 90, "uvlock": true },
        "color=color_1,facing=south,half=bottom,shape=outer_left": { "model": "minefield:magenta_cloth_outer_stairs" },
        "color=color_1,facing=north,half=bottom,shape=outer_left": { "model": "minefield:magenta_cloth_outer_stairs", "y": 180, "uvlock": true },
        "color=color_1,facing=east,half=bottom,shape=inner_right":  { "model": "minefield:magenta_cloth_inner_stairs" },
        "color=color_1,facing=west,half=bottom,shape=inner_right":  { "model": "minefield:magenta_cloth_inner_stairs", "y": 180, "uvlock": true },
        "color=color_1,facing=south,half=bottom,shape=inner_right": { "model": "minefield:magenta_cloth_inner_stairs", "y": 90, "uvlock": true },
        "color=color_1,facing=north,half=bottom,shape=inner_right": { "model": "minefield:magenta_cloth_inner_stairs", "y": 270, "uvlock": true },
        "color=color_1,facing=east,half=bottom,shape=inner_left":  { "model": "minefield:magenta_cloth_inner_stairs", "y": 270, "uvlock": true },
        "color=color_1,facing=west,half=bottom,shape=inner_left":  { "model": "minefield:magenta_cloth_inner_stairs", "y": 90, "uvlock": true },
        "color=color_1,facing=south,half=bottom,shape=inner_left": { "model": "minefield:magenta_cloth_inner_stairs" },
        "color=color_1,facing=north,half=bottom,shape=inner_left": { "model": "minefield:magenta_cloth_inner_stairs", "y": 180, "uvlock": true },
        "color=color_1,facing=east,half=top,shape=straight":  { "model": "minefield:magenta_cloth_stairs", "x": 180, "uvlock": true },
        "color=color_1,facing=west,half=top,shape=straight":  { "model": "minefield:magenta_cloth_stairs", "x": 180, "y": 180, "uvlock": true },
        "color=color_1,facing=south,half=top,shape=straight": { "model": "minefield:magenta_cloth_stairs", "x": 180, "y": 90, "uvlock": true },
        "color=color_1,facing=north,half=top,shape=straight": { "model": "minefield:magenta_cloth_stairs", "x": 180, "y": 270, "uvlock": true },
        "color=color_1,facing=east,half=top,shape=outer_right":  { "model": "minefield:magenta_cloth_outer_stairs", "x": 180, "uvlock": true },
        "color=color_1,facing=west,half=top,shape=outer_right":  { "model": "minefield:magenta_cloth_outer_stairs", "x": 180, "y": 180, "uvlock": true },
        "color=color_1,facing=south,half=top,shape=outer_right": { "model": "minefield:magenta_cloth_outer_stairs", "x": 180, "y": 90, "uvlock": true },
        "color=color_1,facing=north,half=top,shape=outer_right": { "model": "minefield:magenta_cloth_outer_stairs", "x": 180, "y": 270, "uvlock": true },
        "color=color_1,facing=east,half=top,shape=outer_left":  { "model": "minefield:magenta_cloth_outer_stairs", "x": 180, "y": 90, "uvlock": true },
        "color=color_1,facing=west,half=top,shape=outer_left":  { "model": "minefield:magenta_cloth_outer_stairs", "x": 180, "y": 270, "uvlock": true },
        "color=color_1,facing=south,half=top,shape=outer_left": { "model": "minefield:magenta_cloth_outer_stairs", "x": 180, "y": 180, "uvlock": true },
        "color=color_1,facing=north,half=top,shape=outer_left": { "model": "minefield:magenta_cloth_outer_stairs", "x": 180, "uvlock": true },
        "color=color_1,facing=east,half=top,shape=inner_right":  { "model": "minefield:magenta_cloth_inner_stairs", "x": 180, "uvlock": true },
        "color=color_1,facing=west,half=top,shape=inner_right":  { "model": "minefield:magenta_cloth_inner_stairs", "x": 180, "y": 180, "uvlock": true },
        "color=color_1,facing=south,half=top,shape=inner_right": { "model": "minefield:magenta_cloth_inner_stairs", "x": 180, "y": 90, "uvlock": true },
        "color=color_1,facing=north,half=top,shape=inner_right": { "model": "minefield:magenta_cloth_inner_stairs", "x": 180, "y": 270, "uvlock": true },
        "color=color_1,facing=east,half=top,shape=inner_left":  { "model": "minefield:magenta_cloth_inner_stairs", "x": 180, "y": 90, "uvlock": true },
        "color=color_1,facing=west,half=top,shape=inner_left":  { "model": "minefield:magenta_cloth_inner_stairs", "x": 180, "y": 270, "uvlock": true },
        "color=color_1,facing=south,half=top,shape=inner_left": { "model": "minefield:magenta_cloth_inner_stairs", "x": 180, "y": 180, "uvlock": true },
        "color=color_1,facing=north,half=top,shape=inner_left": { "model": "minefield:magenta_cloth_inner_stairs", "x": 180, "uvlock": true },

        "color=color_2,facing=east,half=bottom,shape=straight":  { "model": "minefield:light_blue_cloth_stairs" },
        "color=color_2,facing=west,half=bottom,shape=straight":  { "model": "minefield:light_blue_cloth_stairs", "y": 180, "uvlock": true },
        "color=color_2,facing=south,half=bottom,shape=straight": { "model": "minefield:light_blue_cloth_stairs", "y": 90, "uvlock": true },
        "color=color_2,facing=north,half=bottom,shape=straight": { "model": "minefield:light_blue_cloth_stairs", "y": 270, "uvlock": true },
        "color=color_2,facing=east,half=bottom,shape=outer_right":  { "model": "minefield:light_blue_cloth_outer_stairs" },
        "color=color_2,facing=west,half=bottom,shape=outer_right":  { "model": "minefield:light_blue_cloth_outer_stairs", "y": 180, "uvlock": true },
        "color=color_2,facing=south,half=bottom,shape=outer_right": { "model": "minefield:light_blue_cloth_outer_stairs", "y": 90, "uvlock": true },
        "color=color_2,facing=north,half=bottom,shape=outer_right": { "model": "minefield:light_blue_cloth_outer_stairs", "y": 270, "uvlock": true },
        "color=color_2,facing=east,half=bottom,shape=outer_left":  { "model": "minefield:light_blue_cloth_outer_stairs", "y": 270, "uvlock": true },
        "color=color_2,facing=west,half=bottom,shape=outer_left":  { "model": "minefield:light_blue_cloth_outer_stairs", "y": 90, "uvlock": true },
        "color=color_2,facing=south,half=bottom,shape=outer_left": { "model": "minefield:light_blue_cloth_outer_stairs" },
        "color=color_2,facing=north,half=bottom,shape=outer_left": { "model": "minefield:light_blue_cloth_outer_stairs", "y": 180, "uvlock": true },
        "color=color_2,facing=east,half=bottom,shape=inner_right":  { "model": "minefield:light_blue_cloth_inner_stairs" },
        "color=color_2,facing=west,half=bottom,shape=inner_right":  { "model": "minefield:light_blue_cloth_inner_stairs", "y": 180, "uvlock": true },
        "color=color_2,facing=south,half=bottom,shape=inner_right": { "model": "minefield:light_blue_cloth_inner_stairs", "y": 90, "uvlock": true },
        "color=color_2,facing=north,half=bottom,shape=inner_right": { "model": "minefield:light_blue_cloth_inner_stairs", "y": 270, "uvlock": true },
        "color=color_2,facing=east,half=bottom,shape=inner_left":  { "model": "minefield:light_blue_cloth_inner_stairs", "y": 270, "uvlock": true },
        "color=color_2,facing=west,half=bottom,shape=inner_left":  { "model": "minefield:light_blue_cloth_inner_stairs", "y": 90, "uvlock": true },
        "color=color_2,facing=south,half=bottom,shape=inner_left": { "model": "minefield:light_blue_cloth_inner_stairs" },
        "color=color_2,facing=north,half=bottom,shape=inner_left": { "model": "minefield:light_blue_cloth_inner_stairs", "y": 180, "uvlock": true },
        "color=color_2,facing=east,half=top,shape=straight":  { "model": "minefield:light_blue_cloth_stairs", "x": 180, "uvlock": true },
        "color=color_2,facing=west,half=top,shape=straight":  { "model": "minefield:light_blue_cloth_stairs", "x": 180, "y": 180, "uvlock": true },
        "color=color_2,facing=south,half=top,shape=straight": { "model": "minefield:light_blue_cloth_stairs", "x": 180, "y": 90, "uvlock": true },
        "color=color_2,facing=north,half=top,shape=straight": { "model": "minefield:light_blue_cloth_stairs", "x": 180, "y": 270, "uvlock": true },
        "color=color_2,facing=east,half=top,shape=outer_right":  { "model": "minefield:light_blue_cloth_outer_stairs", "x": 180, "uvlock": true },
        "color=color_2,facing=west,half=top,shape=outer_right":  { "model": "minefield:light_blue_cloth_outer_stairs", "x": 180, "y": 180, "uvlock": true },
        "color=color_2,facing=south,half=top,shape=outer_right": { "model": "minefield:light_blue_cloth_outer_stairs", "x": 180, "y": 90, "uvlock": true },
        "color=color_2,facing=north,half=top,shape=outer_right": { "model": "minefield:light_blue_cloth_outer_stairs", "x": 180, "y": 270, "uvlock": true },
        "color=color_2,facing=east,half=top,shape=outer_left":  { "model": "minefield:light_blue_cloth_outer_stairs", "x": 180, "y": 90, "uvlock": true },
        "color=color_2,facing=west,half=top,shape=outer_left":  { "model": "minefield:light_blue_cloth_outer_stairs", "x": 180, "y": 270, "uvlock": true },
        "color=color_2,facing=south,half=top,shape=outer_left": { "model": "minefield:light_blue_cloth_outer_stairs", "x": 180, "y": 180, "uvlock": true },
        "color=color_2,facing=north,half=top,shape=outer_left": { "model": "minefield:light_blue_cloth_outer_stairs", "x": 180, "uvlock": true },
        "color=color_2,facing=east,half=top,shape=inner_right":  { "model": "minefield:light_blue_cloth_inner_stairs", "x": 180, "uvlock": true },
        "color=color_2,facing=west,half=top,shape=inner_right":  { "model": "minefield:light_blue_cloth_inner_stairs", "x": 180, "y": 180, "uvlock": true },
        "color=color_2,facing=south,half=top,shape=inner_right": { "model": "minefield:light_blue_cloth_inner_stairs", "x": 180, "y": 90, "uvlock": true },
        "color=color_2,facing=north,half=top,shape=inner_right": { "model": "minefield:light_blue_cloth_inner_stairs", "x": 180, "y": 270, "uvlock": true },
        "color=color_2,facing=east,half=top,shape=inner_left":  { "model": "minefield:light_blue_cloth_inner_stairs", "x": 180, "y": 90, "uvlock": true },
        "color=color_2,facing=west,half=top,shape=inner_left":  { "model": "minefield:light_blue_cloth_inner_stairs", "x": 180, "y": 270, "uvlock": true },
        "color=color_2,facing=south,half=top,shape=inner_left": { "model": "minefield:light_blue_cloth_inner_stairs", "x": 180, "y": 180, "uvlock": true },
        "color=color_2,facing=north,half=top,shape=inner_left": { "model": "minefield:light_blue_cloth_inner_stairs", "x": 180, "uvlock": true }
    }
}
