{
    "variants": {
        "axis=y":  { "model": "minefield:dark_oak_2_carvedlog" },
        "axis=z":   { "model": "minefield:dark_oak_2_carvedlog_side" },
        "axis=x":   { "model": "minefield:dark_oak_2_carvedlog_side", "y": 90 },
        "axis=none": { "model": "dark_oak_bark" }
    }
}
