 {
    "variants": {
        "seamless=true,variant=pattern_1":               { "model": "minefield:marble_brick_1" },
        "seamless=true,variant=pattern_2":               { "model": "minefield:marble_brick_2" },
        "seamless=true,variant=pattern_3":               { "model": "minefield:marble_brick_3" },
        "seamless=true,variant=pattern_4":               { "model": "minefield:marble_brick_4" },
        "seamless=true,variant=pattern_5":               { "model": "minefield:marble_brick_5" },
        "seamless=true,variant=pattern_6":               { "model": "minefield:marble_brick_6" },
        "seamless=true,variant=pattern_7":               { "model": "minefield:marble_brick_7" },
        "seamless=true,variant=pattern_8":               { "model": "minefield:marble_brick_8" },

        "seamless=false,variant=pattern_1":                  { "model": "minefield:marble_brick_1" },
        "seamless=false,variant=pattern_2":                  { "model": "minefield:marble_brick_2" },
        "seamless=false,variant=pattern_3":                  { "model": "minefield:marble_brick_3" },
        "seamless=false,variant=pattern_4":                  { "model": "minefield:marble_brick_4" },
        "seamless=false,variant=pattern_5":                  { "model": "minefield:marble_brick_5" },
        "seamless=false,variant=pattern_6":                  { "model": "minefield:marble_brick_6" },
        "seamless=false,variant=pattern_7":                  { "model": "minefield:marble_brick_7" },
        "seamless=false,variant=pattern_8":                  { "model": "minefield:marble_brick_8" }
    }
}
