{
    "variants": {
        "axis=x,link_bottom=false,link_north=false,link_south=false,link_top=false": {
            "model": "minefield:horizontal_chain_udns"
        },
        "axis=x,link_bottom=false,link_north=false,link_south=false,link_top=true": {
            "model": "minefield:horizontal_chain_tdns"
        },
        "axis=x,link_bottom=false,link_north=false,link_south=true,link_top=false": {
            "model": "minefield:horizontal_chain_udnr"
        },
        "axis=x,link_bottom=false,link_north=false,link_south=true,link_top=true": {
            "model": "minefield:horizontal_chain_tdnr"
        },
        "axis=x,link_bottom=false,link_north=true,link_south=false,link_top=false": {
            "model": "minefield:horizontal_chain_udms"
        },
        "axis=x,link_bottom=false,link_north=true,link_south=false,link_top=true": {
            "model": "minefield:horizontal_chain_tdms"
        },
        "axis=x,link_bottom=false,link_north=true,link_south=true,link_top=false": {
            "model": "minefield:horizontal_chain_udmr"
        },
        "axis=x,link_bottom=false,link_north=true,link_south=true,link_top=true": {
            "model": "minefield:horizontal_chain_tdmr"
        },
        "axis=x,link_bottom=true,link_north=false,link_south=false,link_top=false": {
            "model": "minefield:horizontal_chain_ucns"
        },
        "axis=x,link_bottom=true,link_north=false,link_south=false,link_top=true": {
            "model": "minefield:horizontal_chain_tcns"
        },
        "axis=x,link_bottom=true,link_north=false,link_south=true,link_top=false": {
            "model": "minefield:horizontal_chain_ucnr"
        },
        "axis=x,link_bottom=true,link_north=false,link_south=true,link_top=true": {
            "model": "minefield:horizontal_chain_tcnr"
        },
        "axis=x,link_bottom=true,link_north=true,link_south=false,link_top=false": {
            "model": "minefield:horizontal_chain_ucms"
        },
        "axis=x,link_bottom=true,link_north=true,link_south=false,link_top=true": {
            "model": "minefield:horizontal_chain_tcms"
        },
        "axis=x,link_bottom=true,link_north=true,link_south=true,link_top=false": {
            "model": "minefield:horizontal_chain_ucmr"
        },
        "axis=x,link_bottom=true,link_north=true,link_south=true,link_top=true": {
            "model": "minefield:horizontal_chain_tcmr"
        },
        "axis=z,link_bottom=false,link_north=false,link_south=false,link_top=false": {
            "model": "minefield:horizontal_chain_udns",
            "y": 90
        },
        "axis=z,link_bottom=false,link_north=false,link_south=false,link_top=true": {
            "model": "minefield:horizontal_chain_tdns",
            "y": 90
        },
        "axis=z,link_bottom=false,link_north=false,link_south=true,link_top=false": {
            "model": "minefield:horizontal_chain_udnr",
            "y": 90
        },
        "axis=z,link_bottom=false,link_north=false,link_south=true,link_top=true": {
            "model": "minefield:horizontal_chain_tdnr",
            "y": 90
        },
        "axis=z,link_bottom=false,link_north=true,link_south=false,link_top=false": {
            "model": "minefield:horizontal_chain_udms",
            "y": 90
        },
        "axis=z,link_bottom=false,link_north=true,link_south=false,link_top=true": {
            "model": "minefield:horizontal_chain_tdms",
            "y": 90
        },
        "axis=z,link_bottom=false,link_north=true,link_south=true,link_top=false": {
            "model": "minefield:horizontal_chain_udmr",
            "y": 90
        },
        "axis=z,link_bottom=false,link_north=true,link_south=true,link_top=true": {
            "model": "minefield:horizontal_chain_tdmr",
            "y": 90
        },
        "axis=z,link_bottom=true,link_north=false,link_south=false,link_top=false": {
            "model": "minefield:horizontal_chain_ucns",
            "y": 90
        },
        "axis=z,link_bottom=true,link_north=false,link_south=false,link_top=true": {
            "model": "minefield:horizontal_chain_tcns",
            "y": 90
        },
        "axis=z,link_bottom=true,link_north=false,link_south=true,link_top=false": {
            "model": "minefield:horizontal_chain_ucnr",
            "y": 90
        },
        "axis=z,link_bottom=true,link_north=false,link_south=true,link_top=true": {
            "model": "minefield:horizontal_chain_tcnr",
            "y": 90
        },
        "axis=z,link_bottom=true,link_north=true,link_south=false,link_top=false": {
            "model": "minefield:horizontal_chain_ucms",
            "y": 90
        },
        "axis=z,link_bottom=true,link_north=true,link_south=false,link_top=true": {
            "model": "minefield:horizontal_chain_tcms",
            "y": 90
        },
        "axis=z,link_bottom=true,link_north=true,link_south=true,link_top=false": {
            "model": "minefield:horizontal_chain_ucmr",
            "y": 90
        },
        "axis=z,link_bottom=true,link_north=true,link_south=true,link_top=true": {
            "model": "minefield:horizontal_chain_tcmr",
            "y": 90
        }
    }
}
