{
    "variants": {
        "color=empty,shape=cross_lozenge":  { "model": "minefield:inaid_stone_bricks_cross_lozenge_empty" },
        "color=jade,shape=cross_lozenge":   { "model": "minefield:inaid_stone_bricks_cross_lozenge_jade" },
        "color=ruby,shape=cross_lozenge":   { "model": "minefield:inaid_stone_bricks_cross_lozenge_rubis" },
        "color=citrine,shape=cross_lozenge":{ "model": "minefield:inaid_stone_bricks_cross_lozenge_citrine" },
        "color=saphir,shape=cross_lozenge": { "model": "minefield:inaid_stone_bricks_cross_lozenge_saphir" },

        "color=empty,shape=circle":     { "model": "minefield:inaid_stone_bricks_circle_empty" },
        "color=jade,shape=circle":      { "model": "minefield:inaid_stone_bricks_circle_jade" },
        "color=ruby,shape=circle":      { "model": "minefield:inaid_stone_bricks_circle_rubis" },
        "color=citrine,shape=circle":   { "model": "minefield:inaid_stone_bricks_circle_citrine" },
        "color=saphir,shape=circle":    { "model": "minefield:inaid_stone_bricks_circle_saphir" },

        "color=empty,shape=square":     { "model": "minefield:inaid_stone_bricks_square_empty" },
        "color=jade,shape=square":      { "model": "minefield:inaid_stone_bricks_square_jade" },
        "color=ruby,shape=square":      { "model": "minefield:inaid_stone_bricks_square_rubis" },
        "color=citrine,shape=square":   { "model": "minefield:inaid_stone_bricks_square_citrine" },
        "color=saphir,shape=square":    { "model": "minefield:inaid_stone_bricks_square_saphir" }
    }
}
