{
    "variants": {
        "axis=y":  { "model": "minefield:jungle_3_carvedlog" },
        "axis=z":   { "model": "minefield:jungle_3_carvedlog_side" },
        "axis=x":   { "model": "minefield:jungle_3_carvedlog_side", "y": 90 },
        "axis=none": { "model": "jungle_bark" }
    }
}
