{
    "variants": {
        "type=empty": { "model": "minefield:large_vase_oak" },
        "type=mc_rose": { "model": "minefield:large_vase_oak_mc_rose" },
        "type=dandelion": { "model": "minefield:large_vase_oak_dandelion" },
        "type=oak": { "model": "minefield:large_vase_oak_oak" },
        "type=spruce": { "model": "minefield:large_vase_oak_spruce" },
        "type=birch": { "model": "minefield:large_vase_oak_birch" },
        "type=jungle": { "model": "minefield:large_vase_oak_jungle" },
        "type=aspidistra": { "model": "minefield:large_vase_oak_aspidistra" },
        "type=edelweiss": { "model": "minefield:large_vase_oak_edelweiss" },
        "type=polypodi": { "model": "minefield:large_vase_oak_polypodi" },
        "type=dipteris": { "model": "minefield:large_vase_oak_dipteris" },
        "type=ptedirium": { "model": "minefield:large_vase_oak_ptedirium" },
        "type=gentiane": { "model": "minefield:large_vase_oak_gentiane" },
        "type=ipomee": { "model": "minefield:large_vase_oak_ipomee" },
        "type=jacinthe": { "model": "minefield:large_vase_oak_jacinthe" },
        "type=martagon": { "model": "minefield:large_vase_oak_martagon" }
    }
}
