{
    "variants": {
        "type=poppy": { "model": "minefield:large_vase_very_oxidized_copper_poppy" },
        "type=muguet": { "model": "minefield:large_vase_very_oxidized_copper_muguet" },
        "type=primevere": { "model": "minefield:large_vase_very_oxidized_copper_primevere" },
        "type=rose": { "model": "minefield:large_vase_very_oxidized_copper_rose" },
        "type=tulipe": { "model": "minefield:large_vase_very_oxidized_copper_tulipe" },
        "type=arum": { "model": "minefield:large_vase_very_oxidized_copper_arum" },
        "type=blue_orchid": { "model": "minefield:large_vase_very_oxidized_copper_blue_orchid" },
        "type=allium": { "model": "minefield:large_vase_very_oxidized_copper_allium" },
        "type=houstonia": { "model": "minefield:large_vase_very_oxidized_copper_houstonia" },
        "type=red_tulip": { "model": "minefield:large_vase_very_oxidized_copper_red_tulip" },
        "type=orange_tulip": { "model": "minefield:large_vase_very_oxidized_copper_orange_tulip" },
        "type=white_tulip": { "model": "minefield:large_vase_very_oxidized_copper_white_tulip" },
        "type=pink_tulip": { "model": "minefield:large_vase_very_oxidized_copper_pink_tulip" },
        "type=oxeye_daisy": { "model": "minefield:large_vase_very_oxidized_copper_oxeye_daisy" },
        "type=acacia": { "model": "minefield:large_vase_very_oxidized_copper_acacia" },
        "type=big_oak": { "model": "minefield:large_vase_very_oxidized_copper_big_oak" }
    }
}
