{
    "variants": {
        "type=poppy": { "model": "minefield:large_vase_dark_oak_poppy" },
        "type=muguet": { "model": "minefield:large_vase_dark_oak_muguet" },
        "type=primevere": { "model": "minefield:large_vase_dark_oak_primevere" },
        "type=rose": { "model": "minefield:large_vase_dark_oak_rose" },
        "type=tulipe": { "model": "minefield:large_vase_dark_oak_tulipe" },
        "type=arum": { "model": "minefield:large_vase_dark_oak_arum" },
        "type=blue_orchid": { "model": "minefield:large_vase_dark_oak_blue_orchid" },
        "type=allium": { "model": "minefield:large_vase_dark_oak_allium" },
        "type=houstonia": { "model": "minefield:large_vase_dark_oak_houstonia" },
        "type=red_tulip": { "model": "minefield:large_vase_dark_oak_red_tulip" },
        "type=orange_tulip": { "model": "minefield:large_vase_dark_oak_orange_tulip" },
        "type=white_tulip": { "model": "minefield:large_vase_dark_oak_white_tulip" },
        "type=pink_tulip": { "model": "minefield:large_vase_dark_oak_pink_tulip" },
        "type=oxeye_daisy": { "model": "minefield:large_vase_dark_oak_oxeye_daisy" },
        "type=acacia": { "model": "minefield:large_vase_dark_oak_acacia" },
        "type=big_oak": { "model": "minefield:large_vase_dark_oak_big_oak" }
    }
}
