{
    "variants": {
        "type=poppy": { "model": "minefield:large_vase_very_oxidized_brass_poppy" },
        "type=muguet": { "model": "minefield:large_vase_very_oxidized_brass_muguet" },
        "type=primevere": { "model": "minefield:large_vase_very_oxidized_brass_primevere" },
        "type=rose": { "model": "minefield:large_vase_very_oxidized_brass_rose" },
        "type=tulipe": { "model": "minefield:large_vase_very_oxidized_brass_tulipe" },
        "type=arum": { "model": "minefield:large_vase_very_oxidized_brass_arum" },
        "type=blue_orchid": { "model": "minefield:large_vase_very_oxidized_brass_blue_orchid" },
        "type=allium": { "model": "minefield:large_vase_very_oxidized_brass_allium" },
        "type=houstonia": { "model": "minefield:large_vase_very_oxidized_brass_houstonia" },
        "type=red_tulip": { "model": "minefield:large_vase_very_oxidized_brass_red_tulip" },
        "type=orange_tulip": { "model": "minefield:large_vase_very_oxidized_brass_orange_tulip" },
        "type=white_tulip": { "model": "minefield:large_vase_very_oxidized_brass_white_tulip" },
        "type=pink_tulip": { "model": "minefield:large_vase_very_oxidized_brass_pink_tulip" },
        "type=oxeye_daisy": { "model": "minefield:large_vase_very_oxidized_brass_oxeye_daisy" },
        "type=acacia": { "model": "minefield:large_vase_very_oxidized_brass_acacia" },
        "type=big_oak": { "model": "minefield:large_vase_very_oxidized_brass_big_oak" }
    }
}
