{
    "variants": {
        "facing=south": { "model": "minefield:furnace_glassblower_lit", "y": 270 },
        "facing=north": { "model": "minefield:furnace_glassblower_lit", "y": 90 },
        "facing=east":  { "model": "minefield:furnace_glassblower_lit", "y": 180 },
        "facing=west":  { "model": "minefield:furnace_glassblower_lit"}
    }
}
