{
    "variants": {
        "color=empty":      { "model": "minefield:oak_library" },
        "color=black":      { "model": "minefield:bookshelf_oak_black" },
        "color=blue":       { "model": "minefield:bookshelf_oak_blue" },
        "color=cyan":       { "model": "minefield:bookshelf_oak_cyan" },
        "color=gray":       { "model": "minefield:bookshelf_oak_gray" },
        "color=green":      { "model": "minefield:bookshelf_oak_green" },
        "color=lightblue":  { "model": "minefield:bookshelf_oak_lightblue" },
        "color=lime":       { "model": "minefield:bookshelf_oak_lime" },
        "color=magenta":    { "model": "minefield:bookshelf_oak_magenta" },
        "color=orange":     { "model": "minefield:bookshelf_oak_orange" },
        "color=pink":       { "model": "minefield:bookshelf_oak_pink" },
        "color=purple":     { "model": "minefield:bookshelf_oak_purple" },
        "color=red":        { "model": "minefield:bookshelf_oak_red" },
        "color=white":      { "model": "minefield:bookshelf_oak_white" },
        "color=yellow":     { "model": "minefield:bookshelf_oak_yellow" },
        "color=normal":     { "model": "minefield:bookshelf_oak_normal" }
    }
}
