{
    "variants": {
        "facing=east":  { "model": "minefield:skull_light_torch", "y": 90 },
        "facing=west":  { "model": "minefield:skull_light_torch", "y": 270},
        "facing=south": { "model": "minefield:skull_light_torch", "y": 180},
        "facing=north": { "model": "minefield:skull_light_torch"}
    }
}
