{
   "variants" : {
      "offset=6,position=east" : {
         "y" : 90,
         "model" : "minefield:candle_small_with_cup_top_6"
      },
      "offset=8,position=north_east" : {
         "model" : "minefield:candle_small_with_cup_corner_8",
         "y" : 90
      },
      "offset=4,position=west" : {
         "model" : "minefield:candle_small_with_cup_top_4",
         "y" : 270
      },
      "offset=0,position=midle" : {
         "model" : "minefield:candle_small_with_cup_midle_0",
         "y" : 0
      },
      "offset=3,position=south" : {
         "y" : 180,
         "model" : "minefield:candle_small_with_cup_top_3"
      },
      "offset=10,position=south_west" : {
         "model" : "minefield:candle_small_with_cup_corner_10",
         "y" : 270
      },
      "offset=13,position=west" : {
         "model" : "minefield:candle_small_with_cup_top_13",
         "y" : 270
      },
      "offset=12,position=support_1" : {
         "model" : "minefield:candle_small_with_cup_support_12",
         "y" : 90
      },
      "offset=3,position=support_1" : {
         "model" : "minefield:candle_small_with_cup_support_3",
         "y" : 90
      },
      "offset=3,position=west" : {
         "model" : "minefield:candle_small_with_cup_top_3",
         "y" : 270
      },
      "offset=13,position=midle" : {
         "model" : "minefield:candle_small_with_cup_midle_13",
         "y" : 0
      },
      "offset=11,position=north_east" : {
         "y" : 90,
         "model" : "minefield:candle_small_with_cup_corner_11"
      },
      "offset=11,position=north" : {
         "y" : 0,
         "model" : "minefield:candle_small_with_cup_top_11"
      },
      "offset=9,position=support_1" : {
         "y" : 90,
         "model" : "minefield:candle_small_with_cup_support_9"
      },
      "offset=1,position=west" : {
         "model" : "minefield:candle_small_with_cup_top_1",
         "y" : 270
      },
      "offset=11,position=south" : {
         "y" : 180,
         "model" : "minefield:candle_small_with_cup_top_11"
      },
      "offset=2,position=south_west" : {
         "model" : "minefield:candle_small_with_cup_corner_2",
         "y" : 270
      },
      "offset=15,position=north_west" : {
         "model" : "minefield:candle_small_with_cup_corner_15",
         "y" : 0
      },
      "offset=4,position=south_east" : {
         "y" : 180,
         "model" : "minefield:candle_small_with_cup_corner_4"
      },
      "offset=2,position=east" : {
         "y" : 90,
         "model" : "minefield:candle_small_with_cup_top_2"
      },
      "offset=5,position=north_east" : {
         "y" : 90,
         "model" : "minefield:candle_small_with_cup_corner_5"
      },
      "offset=5,position=midle" : {
         "model" : "minefield:candle_small_with_cup_midle_5",
         "y" : 0
      },
      "offset=5,position=south" : {
         "y" : 180,
         "model" : "minefield:candle_small_with_cup_top_5"
      },
      "offset=11,position=support_2" : {
         "model" : "minefield:candle_small_with_cup_support_11",
         "y" : 270
      },
      "offset=4,position=support_2" : {
         "model" : "minefield:candle_small_with_cup_support_4",
         "y" : 270
      },
      "offset=1,position=midle" : {
         "model" : "minefield:candle_small_with_cup_midle_1",
         "y" : 0
      },
      "offset=0,position=north" : {
         "model" : "minefield:candle_small_with_cup_top_0",
         "y" : 0
      },
      "offset=13,position=support_4" : {
         "model" : "minefield:candle_small_with_cup_support_13",
         "y" : 180
      },
      "offset=13,position=support_1" : {
         "y" : 90,
         "model" : "minefield:candle_small_with_cup_support_13"
      },
      "offset=14,position=support_3" : {
         "y" : 0,
         "model" : "minefield:candle_small_with_cup_support_14"
      },
      "offset=5,position=south_west" : {
         "model" : "minefield:candle_small_with_cup_corner_5",
         "y" : 270
      },
      "offset=5,position=support_4" : {
         "model" : "minefield:candle_small_with_cup_support_5",
         "y" : 180
      },
      "offset=5,position=east" : {
         "model" : "minefield:candle_small_with_cup_top_5",
         "y" : 90
      },
      "offset=15,position=support_3" : {
         "y" : 0,
         "model" : "minefield:candle_small_with_cup_support_15"
      },
      "offset=7,position=support_2" : {
         "model" : "minefield:candle_small_with_cup_support_7",
         "y" : 270
      },
      "offset=6,position=south_east" : {
         "y" : 180,
         "model" : "minefield:candle_small_with_cup_corner_6"
      },
      "offset=14,position=north_west" : {
         "y" : 0,
         "model" : "minefield:candle_small_with_cup_corner_14"
      },
      "offset=10,position=south_east" : {
         "y" : 180,
         "model" : "minefield:candle_small_with_cup_corner_10"
      },
      "offset=4,position=midle" : {
         "y" : 0,
         "model" : "minefield:candle_small_with_cup_midle_4"
      },
      "offset=9,position=south_west" : {
         "y" : 270,
         "model" : "minefield:candle_small_with_cup_corner_9"
      },
      "offset=10,position=north_west" : {
         "y" : 0,
         "model" : "minefield:candle_small_with_cup_corner_10"
      },
      "offset=13,position=support_3" : {
         "model" : "minefield:candle_small_with_cup_support_13",
         "y" : 0
      },
      "offset=13,position=north_west" : {
         "y" : 0,
         "model" : "minefield:candle_small_with_cup_corner_13"
      },
      "offset=0,position=north_west" : {
         "model" : "minefield:candle_small_with_cup_corner_0",
         "y" : 0
      },
      "offset=9,position=east" : {
         "y" : 90,
         "model" : "minefield:candle_small_with_cup_top_9"
      },
      "offset=15,position=south_east" : {
         "model" : "minefield:candle_small_with_cup_corner_15",
         "y" : 180
      },
      "offset=4,position=support_3" : {
         "y" : 0,
         "model" : "minefield:candle_small_with_cup_support_4"
      },
      "offset=9,position=north" : {
         "y" : 0,
         "model" : "minefield:candle_small_with_cup_top_9"
      },
      "offset=8,position=south_west" : {
         "model" : "minefield:candle_small_with_cup_corner_8",
         "y" : 270
      },
      "offset=15,position=north" : {
         "y" : 0,
         "model" : "minefield:candle_small_with_cup_top_15"
      },
      "offset=1,position=east" : {
         "y" : 90,
         "model" : "minefield:candle_small_with_cup_top_1"
      },
      "offset=6,position=north_east" : {
         "y" : 90,
         "model" : "minefield:candle_small_with_cup_corner_6"
      },
      "offset=14,position=east" : {
         "model" : "minefield:candle_small_with_cup_top_14",
         "y" : 90
      },
      "offset=11,position=east" : {
         "y" : 90,
         "model" : "minefield:candle_small_with_cup_top_11"
      },
      "offset=3,position=midle" : {
         "model" : "minefield:candle_small_with_cup_midle_3",
         "y" : 0
      },
      "offset=4,position=support_1" : {
         "y" : 90,
         "model" : "minefield:candle_small_with_cup_support_4"
      },
      "offset=10,position=support_1" : {
         "y" : 90,
         "model" : "minefield:candle_small_with_cup_support_10"
      },
      "offset=9,position=support_2" : {
         "model" : "minefield:candle_small_with_cup_support_9",
         "y" : 270
      },
      "offset=13,position=support_2" : {
         "model" : "minefield:candle_small_with_cup_support_13",
         "y" : 270
      },
      "offset=2,position=support_1" : {
         "y" : 90,
         "model" : "minefield:candle_small_with_cup_support_2"
      },
      "offset=2,position=north_east" : {
         "model" : "minefield:candle_small_with_cup_corner_2",
         "y" : 90
      },
      "offset=6,position=south" : {
         "y" : 180,
         "model" : "minefield:candle_small_with_cup_top_6"
      },
      "offset=1,position=support_4" : {
         "y" : 180,
         "model" : "minefield:candle_small_with_cup_support_1"
      },
      "offset=7,position=support_1" : {
         "model" : "minefield:candle_small_with_cup_support_7",
         "y" : 90
      },
      "offset=8,position=east" : {
         "model" : "minefield:candle_small_with_cup_top_8",
         "y" : 90
      },
      "offset=14,position=support_4" : {
         "y" : 180,
         "model" : "minefield:candle_small_with_cup_support_14"
      },
      "offset=11,position=north_west" : {
         "model" : "minefield:candle_small_with_cup_corner_11",
         "y" : 0
      },
      "offset=15,position=west" : {
         "y" : 270,
         "model" : "minefield:candle_small_with_cup_top_15"
      },
      "offset=9,position=north_west" : {
         "y" : 0,
         "model" : "minefield:candle_small_with_cup_corner_9"
      },
      "offset=6,position=support_1" : {
         "y" : 90,
         "model" : "minefield:candle_small_with_cup_support_6"
      },
      "offset=3,position=support_2" : {
         "y" : 270,
         "model" : "minefield:candle_small_with_cup_support_3"
      },
      "offset=4,position=north_east" : {
         "y" : 90,
         "model" : "minefield:candle_small_with_cup_corner_4"
      },
      "offset=7,position=north_west" : {
         "y" : 0,
         "model" : "minefield:candle_small_with_cup_corner_7"
      },
      "offset=12,position=west" : {
         "y" : 270,
         "model" : "minefield:candle_small_with_cup_top_12"
      },
      "offset=5,position=north" : {
         "model" : "minefield:candle_small_with_cup_top_5",
         "y" : 0
      },
      "offset=2,position=support_4" : {
         "model" : "minefield:candle_small_with_cup_support_2",
         "y" : 180
      },
      "offset=11,position=south_east" : {
         "y" : 180,
         "model" : "minefield:candle_small_with_cup_corner_11"
      },
      "offset=3,position=north" : {
         "y" : 0,
         "model" : "minefield:candle_small_with_cup_top_3"
      },
      "offset=13,position=north" : {
         "model" : "minefield:candle_small_with_cup_top_13",
         "y" : 0
      },
      "offset=8,position=support_3" : {
         "y" : 0,
         "model" : "minefield:candle_small_with_cup_support_8"
      },
      "offset=4,position=north_west" : {
         "model" : "minefield:candle_small_with_cup_corner_4",
         "y" : 0
      },
      "offset=0,position=west" : {
         "y" : 270,
         "model" : "minefield:candle_small_with_cup_top_0"
      },
      "offset=7,position=north" : {
         "model" : "minefield:candle_small_with_cup_top_7",
         "y" : 0
      },
      "offset=12,position=south" : {
         "model" : "minefield:candle_small_with_cup_top_12",
         "y" : 180
      },
      "offset=10,position=south" : {
         "model" : "minefield:candle_small_with_cup_top_10",
         "y" : 180
      },
      "offset=11,position=midle" : {
         "model" : "minefield:candle_small_with_cup_midle_11",
         "y" : 0
      },
      "offset=12,position=south_east" : {
         "y" : 180,
         "model" : "minefield:candle_small_with_cup_corner_12"
      },
      "offset=6,position=south_west" : {
         "model" : "minefield:candle_small_with_cup_corner_6",
         "y" : 270
      },
      "offset=12,position=east" : {
         "model" : "minefield:candle_small_with_cup_top_12",
         "y" : 90
      },
      "offset=13,position=south" : {
         "model" : "minefield:candle_small_with_cup_top_13",
         "y" : 180
      },
      "offset=15,position=support_2" : {
         "y" : 270,
         "model" : "minefield:candle_small_with_cup_support_15"
      },
      "offset=12,position=support_2" : {
         "y" : 270,
         "model" : "minefield:candle_small_with_cup_support_12"
      },
      "offset=9,position=south" : {
         "y" : 180,
         "model" : "minefield:candle_small_with_cup_top_9"
      },
      "offset=8,position=west" : {
         "model" : "minefield:candle_small_with_cup_top_8",
         "y" : 270
      },
      "offset=10,position=north_east" : {
         "model" : "minefield:candle_small_with_cup_corner_10",
         "y" : 90
      },
      "offset=11,position=south_west" : {
         "y" : 270,
         "model" : "minefield:candle_small_with_cup_corner_11"
      },
      "offset=14,position=south_east" : {
         "y" : 180,
         "model" : "minefield:candle_small_with_cup_corner_14"
      },
      "offset=10,position=support_4" : {
         "model" : "minefield:candle_small_with_cup_support_10",
         "y" : 180
      },
      "offset=3,position=support_3" : {
         "y" : 0,
         "model" : "minefield:candle_small_with_cup_support_3"
      },
      "offset=15,position=support_1" : {
         "model" : "minefield:candle_small_with_cup_support_15",
         "y" : 90
      },
      "offset=1,position=south_west" : {
         "y" : 270,
         "model" : "minefield:candle_small_with_cup_corner_1"
      },
      "offset=15,position=support_4" : {
         "y" : 180,
         "model" : "minefield:candle_small_with_cup_support_15"
      },
      "offset=13,position=north_east" : {
         "model" : "minefield:candle_small_with_cup_corner_13",
         "y" : 90
      },
      "offset=6,position=midle" : {
         "model" : "minefield:candle_small_with_cup_midle_6",
         "y" : 0
      },
      "offset=1,position=support_1" : {
         "y" : 90,
         "model" : "minefield:candle_small_with_cup_support_1"
      },
      "offset=4,position=support_4" : {
         "model" : "minefield:candle_small_with_cup_support_4",
         "y" : 180
      },
      "offset=6,position=support_3" : {
         "y" : 0,
         "model" : "minefield:candle_small_with_cup_support_6"
      },
      "offset=2,position=support_3" : {
         "model" : "minefield:candle_small_with_cup_support_2",
         "y" : 0
      },
      "offset=0,position=support_3" : {
         "model" : "minefield:candle_small_with_cup_support_0",
         "y" : 0
      },
      "offset=10,position=support_2" : {
         "model" : "minefield:candle_small_with_cup_support_10",
         "y" : 270
      },
      "offset=10,position=support_3" : {
         "y" : 0,
         "model" : "minefield:candle_small_with_cup_support_10"
      },
      "offset=1,position=south_east" : {
         "model" : "minefield:candle_small_with_cup_corner_1",
         "y" : 180
      },
      "offset=12,position=north_east" : {
         "model" : "minefield:candle_small_with_cup_corner_12",
         "y" : 90
      },
      "offset=9,position=support_3" : {
         "y" : 0,
         "model" : "minefield:candle_small_with_cup_support_9"
      },
      "offset=5,position=support_2" : {
         "model" : "minefield:candle_small_with_cup_support_5",
         "y" : 270
      },
      "offset=0,position=support_1" : {
         "model" : "minefield:candle_small_with_cup_support_0",
         "y" : 90
      },
      "offset=11,position=support_1" : {
         "model" : "minefield:candle_small_with_cup_support_11",
         "y" : 90
      },
      "offset=14,position=north" : {
         "y" : 0,
         "model" : "minefield:candle_small_with_cup_top_14"
      },
      "offset=13,position=south_west" : {
         "y" : 270,
         "model" : "minefield:candle_small_with_cup_corner_13"
      },
      "offset=12,position=south_west" : {
         "model" : "minefield:candle_small_with_cup_corner_12",
         "y" : 270
      },
      "offset=4,position=north" : {
         "model" : "minefield:candle_small_with_cup_top_4",
         "y" : 0
      },
      "offset=2,position=west" : {
         "model" : "minefield:candle_small_with_cup_top_2",
         "y" : 270
      },
      "offset=11,position=west" : {
         "y" : 270,
         "model" : "minefield:candle_small_with_cup_top_11"
      },
      "offset=6,position=support_2" : {
         "model" : "minefield:candle_small_with_cup_support_6",
         "y" : 270
      },
      "offset=4,position=east" : {
         "model" : "minefield:candle_small_with_cup_top_4",
         "y" : 90
      },
      "offset=2,position=support_2" : {
         "y" : 270,
         "model" : "minefield:candle_small_with_cup_support_2"
      },
      "offset=1,position=north_east" : {
         "model" : "minefield:candle_small_with_cup_corner_1",
         "y" : 90
      },
      "offset=7,position=midle" : {
         "model" : "minefield:candle_small_with_cup_midle_7",
         "y" : 0
      },
      "offset=5,position=support_3" : {
         "y" : 0,
         "model" : "minefield:candle_small_with_cup_support_5"
      },
      "offset=6,position=north_west" : {
         "model" : "minefield:candle_small_with_cup_corner_6",
         "y" : 0
      },
      "offset=5,position=west" : {
         "model" : "minefield:candle_small_with_cup_top_5",
         "y" : 270
      },
      "offset=3,position=support_4" : {
         "model" : "minefield:candle_small_with_cup_support_3",
         "y" : 180
      },
      "offset=8,position=south" : {
         "y" : 180,
         "model" : "minefield:candle_small_with_cup_top_8"
      },
      "offset=2,position=midle" : {
         "y" : 0,
         "model" : "minefield:candle_small_with_cup_midle_2"
      },
      "offset=10,position=west" : {
         "y" : 270,
         "model" : "minefield:candle_small_with_cup_top_10"
      },
      "offset=8,position=north" : {
         "y" : 0,
         "model" : "minefield:candle_small_with_cup_top_8"
      },
      "offset=13,position=east" : {
         "y" : 90,
         "model" : "minefield:candle_small_with_cup_top_13"
      },
      "offset=0,position=north_east" : {
         "y" : 90,
         "model" : "minefield:candle_small_with_cup_corner_0"
      },
      "offset=12,position=support_3" : {
         "y" : 0,
         "model" : "minefield:candle_small_with_cup_support_12"
      },
      "offset=15,position=south_west" : {
         "model" : "minefield:candle_small_with_cup_corner_15",
         "y" : 270
      },
      "offset=12,position=north" : {
         "model" : "minefield:candle_small_with_cup_top_12",
         "y" : 0
      },
      "offset=6,position=west" : {
         "y" : 270,
         "model" : "minefield:candle_small_with_cup_top_6"
      },
      "offset=15,position=midle" : {
         "model" : "minefield:candle_small_with_cup_midle_15",
         "y" : 0
      },
      "offset=1,position=north_west" : {
         "model" : "minefield:candle_small_with_cup_corner_1",
         "y" : 0
      },
      "offset=12,position=north_west" : {
         "model" : "minefield:candle_small_with_cup_corner_12",
         "y" : 0
      },
      "offset=15,position=south" : {
         "y" : 180,
         "model" : "minefield:candle_small_with_cup_top_15"
      },
      "offset=14,position=midle" : {
         "model" : "minefield:candle_small_with_cup_midle_14",
         "y" : 0
      },
      "offset=12,position=midle" : {
         "y" : 0,
         "model" : "minefield:candle_small_with_cup_midle_12"
      },
      "offset=8,position=midle" : {
         "y" : 0,
         "model" : "minefield:candle_small_with_cup_midle_8"
      },
      "offset=0,position=support_2" : {
         "model" : "minefield:candle_small_with_cup_support_0",
         "y" : 270
      },
      "offset=8,position=support_1" : {
         "y" : 90,
         "model" : "minefield:candle_small_with_cup_support_8"
      },
      "offset=4,position=south" : {
         "model" : "minefield:candle_small_with_cup_top_4",
         "y" : 180
      },
      "offset=7,position=support_3" : {
         "model" : "minefield:candle_small_with_cup_support_7",
         "y" : 0
      },
      "offset=7,position=south_west" : {
         "model" : "minefield:candle_small_with_cup_corner_7",
         "y" : 270
      },
      "offset=3,position=south_east" : {
         "model" : "minefield:candle_small_with_cup_corner_3",
         "y" : 180
      },
      "offset=10,position=east" : {
         "model" : "minefield:candle_small_with_cup_top_10",
         "y" : 90
      },
      "offset=2,position=south_east" : {
         "model" : "minefield:candle_small_with_cup_corner_2",
         "y" : 180
      },
      "offset=3,position=north_west" : {
         "model" : "minefield:candle_small_with_cup_corner_3",
         "y" : 0
      },
      "offset=0,position=support_4" : {
         "y" : 180,
         "model" : "minefield:candle_small_with_cup_support_0"
      },
      "offset=1,position=north" : {
         "model" : "minefield:candle_small_with_cup_top_1",
         "y" : 0
      },
      "offset=1,position=support_2" : {
         "model" : "minefield:candle_small_with_cup_support_1",
         "y" : 270
      },
      "offset=8,position=support_2" : {
         "y" : 270,
         "model" : "minefield:candle_small_with_cup_support_8"
      },
      "offset=8,position=support_4" : {
         "y" : 180,
         "model" : "minefield:candle_small_with_cup_support_8"
      },
      "offset=14,position=south_west" : {
         "model" : "minefield:candle_small_with_cup_corner_14",
         "y" : 270
      },
      "offset=0,position=south_east" : {
         "y" : 180,
         "model" : "minefield:candle_small_with_cup_corner_0"
      },
      "offset=0,position=east" : {
         "y" : 90,
         "model" : "minefield:candle_small_with_cup_top_0"
      },
      "offset=6,position=support_4" : {
         "model" : "minefield:candle_small_with_cup_support_6",
         "y" : 180
      },
      "offset=5,position=support_1" : {
         "model" : "minefield:candle_small_with_cup_support_5",
         "y" : 90
      },
      "offset=7,position=support_4" : {
         "y" : 180,
         "model" : "minefield:candle_small_with_cup_support_7"
      },
      "offset=9,position=midle" : {
         "model" : "minefield:candle_small_with_cup_midle_9",
         "y" : 0
      },
      "offset=10,position=midle" : {
         "model" : "minefield:candle_small_with_cup_midle_10",
         "y" : 0
      },
      "offset=5,position=south_east" : {
         "y" : 180,
         "model" : "minefield:candle_small_with_cup_corner_5"
      },
      "offset=1,position=support_3" : {
         "y" : 0,
         "model" : "minefield:candle_small_with_cup_support_1"
      },
      "offset=11,position=support_4" : {
         "y" : 180,
         "model" : "minefield:candle_small_with_cup_support_11"
      },
      "offset=8,position=south_east" : {
         "model" : "minefield:candle_small_with_cup_corner_8",
         "y" : 180
      },
      "offset=14,position=west" : {
         "model" : "minefield:candle_small_with_cup_top_14",
         "y" : 270
      },
      "offset=14,position=support_2" : {
         "y" : 270,
         "model" : "minefield:candle_small_with_cup_support_14"
      },
      "offset=7,position=east" : {
         "model" : "minefield:candle_small_with_cup_top_7",
         "y" : 90
      },
      "offset=14,position=south" : {
         "y" : 180,
         "model" : "minefield:candle_small_with_cup_top_14"
      },
      "offset=9,position=south_east" : {
         "y" : 180,
         "model" : "minefield:candle_small_with_cup_corner_9"
      },
      "offset=4,position=south_west" : {
         "model" : "minefield:candle_small_with_cup_corner_4",
         "y" : 270
      },
      "offset=13,position=south_east" : {
         "model" : "minefield:candle_small_with_cup_corner_13",
         "y" : 180
      },
      "offset=15,position=east" : {
         "model" : "minefield:candle_small_with_cup_top_15",
         "y" : 90
      },
      "offset=7,position=south" : {
         "model" : "minefield:candle_small_with_cup_top_7",
         "y" : 180
      },
      "offset=6,position=north" : {
         "y" : 0,
         "model" : "minefield:candle_small_with_cup_top_6"
      },
      "offset=3,position=east" : {
         "model" : "minefield:candle_small_with_cup_top_3",
         "y" : 90
      },
      "offset=10,position=north" : {
         "model" : "minefield:candle_small_with_cup_top_10",
         "y" : 0
      },
      "offset=9,position=west" : {
         "y" : 270,
         "model" : "minefield:candle_small_with_cup_top_9"
      },
      "offset=7,position=west" : {
         "model" : "minefield:candle_small_with_cup_top_7",
         "y" : 270
      },
      "offset=5,position=north_west" : {
         "model" : "minefield:candle_small_with_cup_corner_5",
         "y" : 0
      },
      "offset=3,position=south_west" : {
         "model" : "minefield:candle_small_with_cup_corner_3",
         "y" : 270
      },
      "offset=9,position=support_4" : {
         "model" : "minefield:candle_small_with_cup_support_9",
         "y" : 180
      },
      "offset=9,position=north_east" : {
         "model" : "minefield:candle_small_with_cup_corner_9",
         "y" : 90
      },
      "offset=11,position=support_3" : {
         "y" : 0,
         "model" : "minefield:candle_small_with_cup_support_11"
      },
      "offset=0,position=south" : {
         "model" : "minefield:candle_small_with_cup_top_0",
         "y" : 180
      },
      "offset=1,position=south" : {
         "model" : "minefield:candle_small_with_cup_top_1",
         "y" : 180
      },
      "offset=2,position=north" : {
         "y" : 0,
         "model" : "minefield:candle_small_with_cup_top_2"
      },
      "offset=14,position=north_east" : {
         "model" : "minefield:candle_small_with_cup_corner_14",
         "y" : 90
      },
      "offset=8,position=north_west" : {
         "model" : "minefield:candle_small_with_cup_corner_8",
         "y" : 0
      },
      "offset=12,position=support_4" : {
         "model" : "minefield:candle_small_with_cup_support_12",
         "y" : 180
      },
      "offset=2,position=north_west" : {
         "model" : "minefield:candle_small_with_cup_corner_2",
         "y" : 0
      },
      "offset=14,position=support_1" : {
         "model" : "minefield:candle_small_with_cup_support_14",
         "y" : 90
      },
      "offset=2,position=south" : {
         "y" : 180,
         "model" : "minefield:candle_small_with_cup_top_2"
      },
      "offset=7,position=south_east" : {
         "y" : 180,
         "model" : "minefield:candle_small_with_cup_corner_7"
      },
      "offset=7,position=north_east" : {
         "model" : "minefield:candle_small_with_cup_corner_7",
         "y" : 90
      },
      "offset=3,position=north_east" : {
         "model" : "minefield:candle_small_with_cup_corner_3",
         "y" : 90
      },
      "offset=15,position=north_east" : {
         "y" : 90,
         "model" : "minefield:candle_small_with_cup_corner_15"
      },
      "offset=0,position=south_west" : {
         "y" : 270,
         "model" : "minefield:candle_small_with_cup_corner_0"
      }
   }
}
