{
    "variants": {
        "axis=y":  { "model": "minefield:spruce_5_carvedlog" },
        "axis=z":   { "model": "minefield:spruce_5_carvedlog_side" },
        "axis=x":   { "model": "minefield:spruce_5_carvedlog_side", "y": 90 },
        "axis=none": { "model": "spruce_bark" }
    }
}
