{
    "variants": {
        "facing=west":      { "model": "minefield:furnace_miner_off", "y": 90 },
        "facing=east":      { "model": "minefield:furnace_miner_off", "y": 270 },
        "facing=south":     { "model": "minefield:furnace_miner_off" },
        "facing=north":     { "model": "minefield:furnace_miner_off", "y": 180 }
    }
}
