{
    "variants": {
         "type=0" : { "model": "minefield:storage_brass"},
         "type=1" : { "model": "minefield:storage_copper"},
         "type=2" : { "model": "minefield:storage_diamond"},
         "type=3" : { "model": "minefield:storage_glowstonelamp"},
         "type=4" : { "model": "minefield:storage_glowstone"},
         "type=5" : { "model": "minefield:storage_gold"},
         "type=6" : { "model": "minefield:storage_lapis"},
         "type=7" : { "model": "minefield:storage_marble_black"},
         "type=8" : { "model": "minefield:storage_marble_white"},
         "type=9" : { "model": "minefield:storage_oxidized_copper"},
         "type=10" : { "model": "minefield:storage_redstone"},
         "type=11" : { "model": "minefield:storage_slime"},
         "type=12" : { "model": "minefield:storage_steel"},
         "type=13" : { "model": "minefield:storage_tnt"},
         "type=14" : { "model": "minefield:storage_very_oxidized_copper"},
         "type=15" : { "model": "minefield:storage_workbench"}
    }
}
