{
    "variants": {
        "facing=east,variant=oak":      { "model": "minefield:oak_table_top" },
        "facing=west,variant=oak":      { "model": "minefield:oak_table_top", "y": 180, "uvlock": true },
        "facing=south,variant=oak":     { "model": "minefield:oak_table_top", "y": 90, "uvlock": true },
        "facing=north,variant=oak":     { "model": "minefield:oak_table_top", "y": 270, "uvlock": true },

        "facing=east,variant=spruce":   { "model": "minefield:spruce_table_top" },
        "facing=west,variant=spruce":   { "model": "minefield:spruce_table_top", "y": 180, "uvlock": true },
        "facing=south,variant=spruce":  { "model": "minefield:spruce_table_top", "y": 90, "uvlock": true },
        "facing=north,variant=spruce":  { "model": "minefield:spruce_table_top", "y": 270, "uvlock": true },

        "facing=east,variant=birch":    { "model": "minefield:birch_table_top" },
        "facing=west,variant=birch":    { "model": "minefield:birch_table_top", "y": 180, "uvlock": true },
        "facing=south,variant=birch":   { "model": "minefield:birch_table_top", "y": 90, "uvlock": true },
        "facing=north,variant=birch":   { "model": "minefield:birch_table_top", "y": 270, "uvlock": true },

        "facing=east,variant=jungle":   { "model": "minefield:jungle_table_top" },
        "facing=west,variant=jungle":   { "model": "minefield:jungle_table_top", "y": 180, "uvlock": true },
        "facing=south,variant=jungle":  { "model": "minefield:jungle_table_top", "y": 90, "uvlock": true },
        "facing=north,variant=jungle":  { "model": "minefield:jungle_table_top", "y": 270, "uvlock": true }
    }
}
