{
    "variants": {
        "position=full":            { "model": "minefield:full_sign_unknown_alt" },
        "position=x_axis":          { "model": "minefield:vertical_wood_sign_unknown", "y": 90 },
        "position=z_axis":          { "model": "minefield:vertical_wood_sign_unknown" },

        "position=north":           { "model": "minefield:wall_wood_sign_unknown", "y": 180 },
        "position=east":            { "model": "minefield:wall_wood_sign_unknown", "y": 90 },
        "position=south":           { "model": "minefield:wall_wood_sign_unknown"},
        "position=west":            { "model": "minefield:wall_wood_sign_unknown", "y": 270  },

        "position=bottom_north":    { "model": "minefield:horizontal_wood_sign_unknown", "y": 90 },
        "position=bottom_east":     { "model": "minefield:horizontal_wood_sign_unknown" },
        "position=bottom_south":    { "model": "minefield:horizontal_wood_sign_unknown", "y": 90 },
        "position=bottom_west":     { "model": "minefield:horizontal_wood_sign_unknown" },

        "position=top_west":        { "model": "minefield:horizontal_wood_sign_unknown", "x": 180 },
        "position=top_north":       { "model": "minefield:horizontal_wood_sign_unknown", "x": 180, "y": 90 },
        "position=top_east":        { "model": "minefield:horizontal_wood_sign_unknown", "x": 180 },
        "position=top_south":       { "model": "minefield:horizontal_wood_sign_unknown", "x": 180, "y": 90 }
    }
}
