{
    "variants": {
        "type=empty":       { "model": "minefield:vase_very_oxidized_brass" },
        "type=mc_rose":     { "model": "minefield:vase_very_oxidized_brass_mc_rose" },
        "type=dandelion":   { "model": "minefield:vase_very_oxidized_brass_dandelion" },
        "type=oak":         { "model": "minefield:vase_very_oxidized_brass_oak" },
        "type=spruce":      { "model": "minefield:vase_very_oxidized_brass_spruce" },
        "type=birch":       { "model": "minefield:vase_very_oxidized_brass_birch" },
        "type=jungle":      { "model": "minefield:vase_very_oxidized_brass_jungle" },
        "type=aspidistra":  { "model": "minefield:vase_very_oxidized_brass_aspidistra" },
        "type=edelweiss":   { "model": "minefield:vase_very_oxidized_brass_edelweiss" },
        "type=polypodi":    { "model": "minefield:vase_very_oxidized_brass_polypodi" },
        "type=dipteris":    { "model": "minefield:vase_very_oxidized_brass_dipteris" },
        "type=ptedirium":   { "model": "minefield:vase_very_oxidized_brass_ptedirium" },
        "type=gentiane":    { "model": "minefield:vase_very_oxidized_brass_gentiane" },
        "type=ipomee":      { "model": "minefield:vase_very_oxidized_brass_ipomee" },
        "type=jacinthe":    { "model": "minefield:vase_very_oxidized_brass_jacinthe" },
        "type=martagon":    { "model": "minefield:vase_very_oxidized_brass_martagon" }
    }
}
