{
    "variants": {
        "type=empty": { "model": "minefield:vase_acacia" },
        "type=mc_rose": { "model": "minefield:vase_acacia_mc_rose" },
        "type=dandelion": { "model": "minefield:vase_acacia_dandelion" },
        "type=oak": { "model": "minefield:vase_acacia_oak" },
        "type=spruce": { "model": "minefield:vase_acacia_spruce" },
        "type=birch": { "model": "minefield:vase_acacia_birch" },
        "type=jungle": { "model": "minefield:vase_acacia_jungle" },
        "type=aspidistra": { "model": "minefield:vase_acacia_aspidistra" },
        "type=edelweiss": { "model": "minefield:vase_acacia_edelweiss" },
        "type=polypodi": { "model": "minefield:vase_acacia_polypodi" },
        "type=dipteris": { "model": "minefield:vase_acacia_dipteris" },
        "type=ptedirium": { "model": "minefield:vase_acacia_ptedirium" },
        "type=gentiane": { "model": "minefield:vase_acacia_gentiane" },
        "type=ipomee": { "model": "minefield:vase_acacia_ipomee" },
        "type=jacinthe": { "model": "minefield:vase_acacia_jacinthe" },
        "type=martagon": { "model": "minefield:vase_acacia_martagon" }
    }
}
