{
    "__createdwith": "opl's Model Creator",
    "ambientocclusion": true,
    "textures": {
        "dirt": "blocks/dirt",
        "large_vase_brass_side": "minefield:blocks/large_vase_brass_side",
        "large_vase_brass_top": "minefield:blocks/large_vase_brass_top",
        "particle": "minefield:blocks/large_vase_brass_side",
        "large_vase_brass_bottom": "minefield:blocks/large_vase_brass_bottom"
    },
    "elements": [
        {
            "from": [1,0,2],
            "to": [2,8,15],
            "faces": {
                "up": {
                    "texture": "#large_vase_brass_top"
                },
                "down": {
                    "uv": [1,1,2,14],
                    "texture": "#large_vase_brass_bottom"
                },
                "west": {
                    "texture": "#large_vase_brass_side"
                },
                "east": {
                    "uv": [1,8,14,16],
                    "texture": "#large_vase_brass_side"
                },
                "south": {
                    "texture": "#large_vase_brass_side"
                }
            }
        },
        {
            "from": [1,0,1],
            "to": [14,8,2],
            "faces": {
                "up": {
                    "texture": "#large_vase_brass_top"
                },
                "down": {
                    "uv": [1,14,14,15],
                    "texture": "#large_vase_brass_bottom"
                },
                "west": {
                    "texture": "#large_vase_brass_side"
                },
                "north": {
                    "uv": [2,8,15,16],
                    "texture": "#large_vase_brass_side"
                },
                "south": {
                    "texture": "#large_vase_brass_side"
                }
            }
        },
        {
            "from": [14,0,1],
            "to": [15,8,14],
            "faces": {
                "up": {
                    "texture": "#large_vase_brass_top"
                },
                "down": {
                    "uv": [14,2,15,15],
                    "texture": "#large_vase_brass_bottom"
                },
                "west": {
                    "texture": "#large_vase_brass_side"
                },
                "east": {
                    "uv": [2,8,15,16],
                    "texture": "#large_vase_brass_side"
                },
                "north": {
                    "uv": [1,8,2,16],
                    "texture": "#large_vase_brass_side"
                }
            }
        },
        {
            "from": [2,0,14],
            "to": [15,8,15],
            "faces": {
                "up": {
                    "texture": "#large_vase_brass_top"
                },
                "down": {
                    "uv": [2,1,15,2],
                    "texture": "#large_vase_brass_bottom"
                },
                "east": {
                    "uv": [1,8,2,16],
                    "texture": "#large_vase_brass_side"
                },
                "north": {
                    "uv": [1,8,14,16],
                    "texture": "#large_vase_brass_side"
                },
                "south": {
                    "texture": "#large_vase_brass_side"
                }
            }
        },
        {
            "from": [2,0,2],
            "to": [14,6,14],
            "faces": {
                "up": {
                    "texture": "#dirt"
                },
                "down": {
                    "texture": "#large_vase_brass_bottom"
                }
            }
        }
    ]
}