{
   "textures" : {
      "particle" : "minecraft:blocks/planks_acacia",
      "all" : "minecraft:blocks/planks_acacia"
   },
   "elements" : [
      {
         "to" : [
            24,
            11,
            9.5
         ],
         "faces" : {
            "up" : {
               "texture" : "#all",
               "uv" : [
                  0,
                  0,
                  16,
                  3
               ]
            },
            "east" : {
               "texture" : "#all",
               "uv" : [
                  5,
                  0,
                  8,
                  2
               ]
            },
            "north" : {
               "texture" : "#all",
               "uv" : [
                  0,
                  0,
                  16,
                  2
               ]
            },
            "west" : {
               "uv" : [
                  5,
                  0,
                  8,
                  2
               ],
               "texture" : "#all"
            },
            "south" : {
               "uv" : [
                  0,
                  0,
                  16,
                  2
               ],
               "texture" : "#all"
            },
            "down" : {
               "uv" : [
                  0,
                  0,
                  16,
                  3
               ],
               "texture" : "#all"
            }
         },
         "from" : [
            -1,
            9,
            6.5
         ]
      },
      {
         "from" : [
            -1,
            0,
            6.5
         ],
         "to" : [
            1,
            9,
            9.5
         ],
         "faces" : {
            "down" : {
               "texture" : "#all",
               "uv" : [
                  12,
                  8,
                  14,
                  11
               ]
            },
            "south" : {
               "texture" : "#all",
               "uv" : [
                  0,
                  7,
                  2,
                  16
               ]
            },
            "west" : {
               "texture" : "#all",
               "uv" : [
                  5,
                  7,
                  8,
                  16
               ]
            },
            "north" : {
               "texture" : "#all",
               "uv" : [
                  0,
                  7,
                  2,
                  16
               ]
            },
            "east" : {
               "texture" : "#all",
               "uv" : [
                  5,
                  7,
                  8,
                  16
               ]
            },
            "up" : {
               "texture" : "#all"
            }
         }
      },
      {
         "faces" : {
            "down" : {
               "texture" : "#all",
               "uv" : [
                  12,
                  8,
                  14,
                  10
               ]
            },
            "south" : {
               "texture" : "#all",
               "uv" : [
                  0,
                  0,
                  2,
                  10
               ]
            },
            "north" : {
               "texture" : "#all",
               "uv" : [
                  0,
                  0,
                  2,
                  10
               ]
            },
            "west" : {
               "texture" : "#all",
               "uv" : [
                  5,
                  0,
                  7,
                  10
               ]
            },
            "up" : {
               "uv" : [
                  12,
                  8,
                  14,
                  10
               ],
               "texture" : "#all"
            },
            "east" : {
               "uv" : [
                  5,
                  0,
                  7,
                  10
               ],
               "texture" : "#all"
            }
         },
         "to" : [
            1,
            12,
            9
         ],
         "rotation" : {
            "angle" : -45,
            "axis" : "z",
            "origin" : [
               1,
               2,
               8
            ]
         },
         "from" : [
            -1,
            2,
            7
         ]
      },
      {
         "faces" : {
            "east" : {
               "texture" : "#all"
            },
            "up" : {
               "texture" : "#all"
            },
            "west" : {
               "texture" : "#all"
            },
            "north" : {
               "uv" : [
                  0,
                  7,
                  1,
                  16
               ],
               "texture" : "#all"
            },
            "down" : {
               "texture" : "#all",
               "uv" : [
                  12,
                  8,
                  13,
                  10
               ]
            },
            "south" : {
               "uv" : [
                  0,
                  7,
                  1,
                  16
               ],
               "texture" : "#all"
            }
         },
         "to" : [
            23,
            9,
            9
         ],
         "from" : [
            22,
            0,
            7
         ]
      }
   ],
   "ambientocclusion" : "false"
}
