{
    "__createdwith": "opl's Model Creator",
    "ambientocclusion": false,
    "textures": {
        "side": "minefield:blocks/caisse-acacia-croix",
        "side2": "minefield:blocks/caisse-acacia-diagonale",
        "top": "minefield:blocks/caisse-acacia-top",
        "bottom": "minefield:blocks/caisse-acacia-bottom",
        "particle": "minefield:blocks/caisse-acacia-diagonale"
    },
    "elements": [
        {
            "from": [0,0,0],
            "to": [16,16,16],
            "faces": {
                "up": {
                    "texture": "#top"
                },
                "down": {
                    "texture": "#bottom"
                },
                "west": {
                    "texture": "#side"
                },
                "east": {
                    "texture": "#side"
                },
                "north": {
                    "texture": "#side2"
                },
                "south": {
                    "texture": "#side2"
                }
            }
        }
    ]
}
