{
    "__createdwith": "opl's Model Creator",
    "ambientocclusion": true,
    "textures": {
        "particle": "#side",
        "barre": "blocks/iron_block"
    },
    "elements": [
        {
            "from": [0,4,0],
            "to": [16,6.5,16],
            "faces": {
                "up": {
                    "texture": "#barre"
                },
                "down": {
                    "texture": "#barre"
                },
                "west": {
                    "texture": "#barre"
                },
                "east": {
                    "texture": "#barre"
                },
                "north": {
                    "texture": "#barre"
                },
                "south": {
                    "texture": "#barre"
                }
            }
        },
        {
            "from": [0,9.5,0],
            "to": [16,12,16],
            "faces": {
                "up": {
                    "texture": "#barre"
                },
                "down": {
                    "texture": "#barre"
                },
                "west": {
                    "texture": "#barre"
                },
                "east": {
                    "texture": "#barre"
                },
                "north": {
                    "texture": "#barre"
                },
                "south": {
                    "texture": "#barre"
                }
            }
        },
        {
            "from": [14,0,1],
            "to": [15,16,15],
            "faces": {
                "up": {
                    "texture": "#side"
                },
                "down": {
                    "texture": "#side"
                },
                "west": {
                    "texture": "#side"
                },
                "east": {
                    "texture": "#side"
                },
                "north": {
                    "texture": "#side"
                },
                "south": {
                    "texture": "#side"
                }
            }
        },
        {
            "from": [1,0,1],
            "to": [2,16,15],
            "faces": {
                "up": {
                    "texture": "#side"
                },
                "down": {
                    "texture": "#side"
                },
                "west": {
                    "texture": "#side"
                },
                "east": {
                    "texture": "#side"
                },
                "north": {
                    "texture": "#side"
                },
                "south": {
                    "texture": "#side"
                }
            }
        },
        {
            "from": [2,0,1],
            "to": [14,16,2],
            "faces": {
                "up": {
                    "texture": "#side"
                },
                "down": {
                    "texture": "#side"
                },
                "west": {
                    "texture": "#side"
                },
                "east": {
                    "texture": "#side"
                },
                "north": {
                    "texture": "#side"
                },
                "south": {
                    "texture": "#side"
                }
            }
        },
        {
            "from": [2,0,14],
            "to": [14,16,15],
            "faces": {
                "up": {
                    "texture": "#side"
                },
                "down": {
                    "texture": "#side"
                },
                "west": {
                    "texture": "#side"
                },
                "east": {
                    "texture": "#side"
                },
                "north": {
                    "texture": "#side"
                },
                "south": {
                    "texture": "#side"
                }
            }
        },
        {
            "from": [2,1.5,2],
            "to": [14,14.5,14],
            "faces": {
                "up": {
                    "texture": "#side"
                },
                "down": {
                    "texture": "#side"
                },
                "west": {
                    "texture": "#side"
                },
                "east": {
                    "texture": "#side"
                },
                "north": {
                    "texture": "#side"
                },
                "south": {
                    "texture": "#side"
                }
            }
        }
    ]
}
