{
   "textures" : {
      "all" : "minecraft:blocks/planks_birch",
      "particle" : "minecraft:blocks/planks_birch"
   },
   "elements" : [
      {
         "faces" : {
            "north" : {
               "texture" : "#all",
               "uv" : [
                  0,
                  0,
                  16,
                  2
               ]
            },
            "west" : {
               "texture" : "#all",
               "uv" : [
                  5,
                  0,
                  8,
                  2
               ]
            },
            "down" : {
               "uv" : [
                  0,
                  0,
                  16,
                  3
               ],
               "texture" : "#all"
            },
            "south" : {
               "uv" : [
                  0,
                  0,
                  16,
                  2
               ],
               "texture" : "#all"
            },
            "east" : {
               "uv" : [
                  5,
                  0,
                  8,
                  2
               ],
               "texture" : "#all"
            },
            "up" : {
               "texture" : "#all",
               "uv" : [
                  0,
                  0,
                  16,
                  3
               ]
            }
         },
         "to" : [
            24,
            16,
            9.5
         ],
         "from" : [
            -5,
            14,
            6.5
         ]
      },
      {
         "from" : [
            -5,
            0,
            6.5
         ],
         "to" : [
            -3,
            14,
            9.5
         ],
         "faces" : {
            "down" : {
               "texture" : "#all",
               "uv" : [
                  12,
                  8,
                  14,
                  11
               ]
            },
            "south" : {
               "texture" : "#all",
               "uv" : [
                  0,
                  2,
                  2,
                  16
               ]
            },
            "north" : {
               "texture" : "#all",
               "uv" : [
                  0,
                  2,
                  2,
                  16
               ]
            },
            "west" : {
               "texture" : "#all",
               "uv" : [
                  5,
                  2,
                  8,
                  16
               ]
            },
            "up" : {
               "texture" : "#all"
            },
            "east" : {
               "uv" : [
                  5,
                  2,
                  8,
                  16
               ],
               "texture" : "#all"
            }
         }
      },
      {
         "from" : [
            -5,
            7,
            7
         ],
         "rotation" : {
            "angle" : -45,
            "axis" : "z",
            "origin" : [
               -3,
               7,
               8
            ]
         },
         "to" : [
            -3,
            17,
            9
         ],
         "faces" : {
            "up" : {
               "texture" : "#all",
               "uv" : [
                  12,
                  8,
                  14,
                  10
               ]
            },
            "east" : {
               "texture" : "#all",
               "uv" : [
                  5,
                  0,
                  7,
                  10
               ]
            },
            "north" : {
               "uv" : [
                  0,
                  0,
                  2,
                  10
               ],
               "texture" : "#all"
            },
            "west" : {
               "uv" : [
                  5,
                  0,
                  7,
                  10
               ],
               "texture" : "#all"
            },
            "south" : {
               "texture" : "#all",
               "uv" : [
                  0,
                  0,
                  2,
                  10
               ]
            },
            "down" : {
               "texture" : "#all",
               "uv" : [
                  12,
                  8,
                  14,
                  10
               ]
            }
         }
      }
   ],
   "ambientocclusion" : "false"
}
