{
    "parent": "block/inner_stairs",
    "textures": {
        "bottom": "minefield:blocks/structure-birch",
        "top": "minefield:blocks/structure-birch",
        "side": "minefield:blocks/structure-birch"
    }
}
