{
    "parent": "minefield:block/outer_flat_stairs",
    "textures": {
        "bottom": "minefield:blocks/marbre-noir-brut",
        "top": "minefield:blocks/marbre-noir-brut",
        "side": "minefield:blocks/marbre-noir-brut"
    }
}
