{
    "parent": "block/stairs",
    "textures": {
        "bottom": "minefield:blocks/bloc-laiton",
        "top": "minefield:blocks/bloc-laiton",
        "side": "minefield:blocks/bloc-laiton"
    }
}
