{
    "parent": "block/outer_stairs",
    "textures": {
        "bottom": "minefield:blocks/structure-laiton",
        "top": "minefield:blocks/structure-laiton",
        "side": "minefield:blocks/structure-laiton"
    }
}
