{
   "ambientocclusion" : false,
   "elements" : [
      {
         "faces" : {
            "west" : {
               "uv" : [
                  0,
                  5,
                  3,
                  16
               ],
               "texture" : "#candle"
            },
            "north" : {
               "texture" : "#candle",
               "uv" : [
                  0,
                  5,
                  3,
                  16
               ]
            },
            "east" : {
               "texture" : "#candle",
               "uv" : [
                  0,
                  5,
                  3,
                  16
               ]
            },
            "down" : {
               "texture" : "#candle",
               "uv" : [
                  0,
                  0,
                  3,
                  3
               ]
            },
            "up" : {
               "uv" : [
                  0,
                  0,
                  3,
                  3
               ],
               "texture" : "#candle"
            },
            "south" : {
               "texture" : "#candle",
               "uv" : [
                  0,
                  5,
                  3,
                  16
               ]
            }
         },
         "from" : [
            14,
            0,
            7
         ],
         "to" : [
            17,
            11,
            10
         ]
      },
      {
         "to" : [
            16,
            12,
            9
         ],
         "from" : [
            15,
            11,
            8
         ],
         "faces" : {
            "east" : {
               "texture" : "#wick",
               "uv" : [
                  2,
                  1,
                  3,
                  2
               ]
            },
            "west" : {
               "uv" : [
                  2,
                  2,
                  3,
                  3
               ],
               "texture" : "#wick"
            },
            "north" : {
               "uv" : [
                  1,
                  1,
                  2,
                  2
               ],
               "texture" : "#wick"
            },
            "south" : {
               "texture" : "#wick",
               "uv" : [
                  1,
                  0,
                  2,
                  1
               ]
            },
            "up" : {
               "texture" : "#wick",
               "uv" : [
                  0,
                  0,
                  1,
                  1
               ]
            },
            "down" : {
               "uv" : [
                  0,
                  1,
                  1,
                  2
               ],
               "texture" : "#wick"
            }
         }
      },
      {
         "to" : [
            14,
            1,
            8
         ],
         "from" : [
            13,
            0,
            7
         ],
         "faces" : {
            "north" : {
               "uv" : [
                  0,
                  12,
                  1,
                  13
               ],
               "texture" : "#candle"
            },
            "west" : {
               "uv" : [
                  0,
                  11,
                  1,
                  12
               ],
               "texture" : "#candle"
            },
            "east" : {
               "uv" : [
                  0,
                  10,
                  1,
                  11
               ],
               "texture" : "#candle"
            },
            "down" : {
               "texture" : "#candle",
               "uv" : [
                  0,
                  0,
                  1,
                  1
               ]
            },
            "up" : {
               "uv" : [
                  0,
                  0,
                  1,
                  1
               ],
               "texture" : "#candle"
            },
            "south" : {
               "texture" : "#candle",
               "uv" : [
                  0,
                  13,
                  1,
                  14
               ]
            }
         }
      },
      {
         "faces" : {
            "south" : {
               "texture" : "#candle",
               "uv" : [
                  0,
                  13,
                  1,
                  14
               ]
            },
            "down" : {
               "texture" : "#candle",
               "uv" : [
                  0,
                  0,
                  1,
                  2
               ]
            },
            "up" : {
               "uv" : [
                  0,
                  0,
                  1,
                  2
               ],
               "texture" : "#candle"
            },
            "east" : {
               "texture" : "#candle",
               "uv" : [
                  0,
                  10,
                  1,
                  11
               ]
            },
            "west" : {
               "uv" : [
                  0,
                  11,
                  1,
                  12
               ],
               "texture" : "#candle"
            },
            "north" : {
               "texture" : "#candle",
               "uv" : [
                  0,
                  12,
                  1,
                  13
               ]
            }
         },
         "from" : [
            17,
            0,
            9
         ],
         "to" : [
            18,
            1,
            11
         ]
      },
      {
         "to" : [
            18,
            1,
            11
         ],
         "from" : [
            16,
            0,
            9
         ],
         "faces" : {
            "up" : {
               "texture" : "#candle",
               "uv" : [
                  0,
                  0,
                  2,
                  2
               ]
            },
            "down" : {
               "texture" : "#candle",
               "uv" : [
                  0,
                  0,
                  2,
                  2
               ]
            },
            "south" : {
               "texture" : "#candle",
               "uv" : [
                  0,
                  13,
                  2,
                  14
               ]
            },
            "north" : {
               "uv" : [
                  0,
                  12,
                  2,
                  13
               ],
               "texture" : "#candle"
            },
            "west" : {
               "texture" : "#candle",
               "uv" : [
                  0,
                  11,
                  2,
                  12
               ]
            },
            "east" : {
               "uv" : [
                  0,
                  10,
                  2,
                  11
               ],
               "texture" : "#candle"
            }
         }
      }
   ],
   "textures" : {
      "wick" : "minefield:blocks/bougie-meche",
      "particle" : "minefield:blocks/bougie",
      "cup" : "minefield:blocks/bougie-coupelle",
      "candle" : "minefield:blocks/bougie"
   }
}
