{
   "ambientocclusion" : false,
   "textures" : {
      "candle" : "minefield:blocks/bougie",
      "wick" : "minefield:blocks/bougie-meche",
      "particle" : "minefield:blocks/bougie",
      "cup" : "minefield:blocks/bougie-coupelle"
   },
   "elements" : [
      {
         "faces" : {
            "up" : {
               "uv" : [
                  0,
                  0,
                  3,
                  3
               ],
               "texture" : "#candle"
            },
            "down" : {
               "texture" : "#candle",
               "uv" : [
                  0,
                  0,
                  3,
                  3
               ]
            },
            "south" : {
               "uv" : [
                  0,
                  11,
                  3,
                  16
               ],
               "texture" : "#candle"
            },
            "west" : {
               "uv" : [
                  0,
                  11,
                  3,
                  16
               ],
               "texture" : "#candle"
            },
            "north" : {
               "uv" : [
                  0,
                  11,
                  3,
                  16
               ],
               "texture" : "#candle"
            },
            "east" : {
               "uv" : [
                  0,
                  11,
                  3,
                  16
               ],
               "texture" : "#candle"
            }
         },
         "from" : [
            7,
            -12,
            2
         ],
         "to" : [
            10,
            -8,
            5
         ]
      },
      {
         "from" : [
            8,
            -8,
            3
         ],
         "faces" : {
            "north" : {
               "uv" : [
                  1,
                  1,
                  2,
                  2
               ],
               "texture" : "#wick"
            },
            "west" : {
               "uv" : [
                  2,
                  2,
                  3,
                  3
               ],
               "texture" : "#wick"
            },
            "east" : {
               "uv" : [
                  2,
                  1,
                  3,
                  2
               ],
               "texture" : "#wick"
            },
            "up" : {
               "uv" : [
                  0,
                  0,
                  1,
                  1
               ],
               "texture" : "#wick"
            },
            "down" : {
               "uv" : [
                  0,
                  1,
                  1,
                  2
               ],
               "texture" : "#wick"
            },
            "south" : {
               "texture" : "#wick",
               "uv" : [
                  1,
                  0,
                  2,
                  1
               ]
            }
         },
         "to" : [
            9,
            -7,
            4
         ]
      },
      {
         "to" : [
            11,
            -12,
            6
         ],
         "from" : [
            6,
            -13,
            1
         ],
         "faces" : {
            "up" : {
               "texture" : "#cup",
               "uv" : [
                  0,
                  0,
                  5,
                  5
               ]
            },
            "down" : {
               "texture" : "#cup",
               "uv" : [
                  0,
                  0,
                  5,
                  5
               ]
            }
         }
      },
      {
         "from" : [
            5,
            -13,
            1
         ],
         "faces" : {
            "south" : {
               "uv" : [
                  10,
                  0,
                  11,
                  2
               ],
               "texture" : "#cup"
            },
            "down" : {
               "texture" : "#cup",
               "uv" : [
                  14,
                  0,
                  15,
                  5
               ]
            },
            "up" : {
               "texture" : "#cup",
               "uv" : [
                  15,
                  0,
                  16,
                  5
               ]
            },
            "east" : {
               "texture" : "#cup",
               "uv" : [
                  0,
                  0,
                  5,
                  2
               ]
            },
            "north" : {
               "texture" : "#cup",
               "uv" : [
                  10,
                  0,
                  11,
                  2
               ]
            },
            "west" : {
               "uv" : [
                  0,
                  0,
                  5,
                  2
               ],
               "texture" : "#cup"
            }
         },
         "to" : [
            6,
            -11,
            6
         ]
      },
      {
         "from" : [
            11,
            -13,
            1
         ],
         "faces" : {
            "north" : {
               "texture" : "#cup",
               "uv" : [
                  10,
                  0,
                  11,
                  2
               ]
            },
            "west" : {
               "texture" : "#cup",
               "uv" : [
                  0,
                  0,
                  5,
                  2
               ]
            },
            "east" : {
               "texture" : "#cup",
               "uv" : [
                  0,
                  0,
                  5,
                  2
               ]
            },
            "up" : {
               "texture" : "#cup",
               "uv" : [
                  13,
                  0,
                  14,
                  5
               ]
            },
            "down" : {
               "uv" : [
                  12,
                  0,
                  13,
                  5
               ],
               "texture" : "#cup"
            },
            "south" : {
               "uv" : [
                  10,
                  0,
                  11,
                  2
               ],
               "texture" : "#cup"
            }
         },
         "to" : [
            12,
            -11,
            6
         ]
      },
      {
         "from" : [
            6,
            -13,
            0
         ],
         "faces" : {
            "up" : {
               "uv" : [
                  0,
                  15,
                  5,
                  16
               ],
               "texture" : "#cup"
            },
            "down" : {
               "texture" : "#cup",
               "uv" : [
                  0,
                  14,
                  5,
                  15
               ]
            },
            "south" : {
               "texture" : "#cup",
               "uv" : [
                  0,
                  0,
                  5,
                  2
               ]
            },
            "north" : {
               "texture" : "#cup",
               "uv" : [
                  0,
                  0,
                  5,
                  2
               ]
            },
            "west" : {
               "texture" : "#cup",
               "uv" : [
                  11,
                  0,
                  12,
                  2
               ]
            },
            "east" : {
               "texture" : "#cup",
               "uv" : [
                  13,
                  0,
                  14,
                  2
               ]
            }
         },
         "to" : [
            11,
            -11,
            1
         ]
      },
      {
         "faces" : {
            "south" : {
               "texture" : "#cup",
               "uv" : [
                  0,
                  0,
                  5,
                  2
               ]
            },
            "up" : {
               "texture" : "#cup",
               "uv" : [
                  0,
                  15,
                  5,
                  16
               ]
            },
            "down" : {
               "uv" : [
                  0,
                  14,
                  5,
                  15
               ],
               "texture" : "#cup"
            },
            "east" : {
               "texture" : "#cup",
               "uv" : [
                  13,
                  0,
                  14,
                  2
               ]
            },
            "west" : {
               "texture" : "#cup",
               "uv" : [
                  11,
                  0,
                  12,
                  2
               ]
            },
            "north" : {
               "texture" : "#cup",
               "uv" : [
                  0,
                  0,
                  5,
                  2
               ]
            }
         },
         "from" : [
            6,
            -13,
            6
         ],
         "to" : [
            11,
            -11,
            7
         ]
      },
      {
         "to" : [
            7,
            -11,
            3
         ],
         "faces" : {
            "up" : {
               "uv" : [
                  0,
                  0,
                  1,
                  1
               ],
               "texture" : "#candle"
            },
            "down" : {
               "texture" : "#candle",
               "uv" : [
                  0,
                  0,
                  1,
                  1
               ]
            },
            "south" : {
               "texture" : "#candle",
               "uv" : [
                  0,
                  13,
                  1,
                  14
               ]
            },
            "west" : {
               "texture" : "#candle",
               "uv" : [
                  0,
                  11,
                  1,
                  12
               ]
            },
            "north" : {
               "texture" : "#candle",
               "uv" : [
                  0,
                  12,
                  1,
                  13
               ]
            },
            "east" : {
               "texture" : "#candle",
               "uv" : [
                  0,
                  10,
                  1,
                  11
               ]
            }
         },
         "from" : [
            6,
            -12,
            2
         ]
      },
      {
         "faces" : {
            "south" : {
               "uv" : [
                  0,
                  13,
                  1,
                  14
               ],
               "texture" : "#candle"
            },
            "down" : {
               "texture" : "#candle",
               "uv" : [
                  0,
                  0,
                  1,
                  2
               ]
            },
            "up" : {
               "uv" : [
                  0,
                  0,
                  1,
                  2
               ],
               "texture" : "#candle"
            },
            "east" : {
               "texture" : "#candle",
               "uv" : [
                  0,
                  10,
                  1,
                  11
               ]
            },
            "west" : {
               "texture" : "#candle",
               "uv" : [
                  0,
                  11,
                  1,
                  12
               ]
            },
            "north" : {
               "uv" : [
                  0,
                  12,
                  1,
                  13
               ],
               "texture" : "#candle"
            }
         },
         "from" : [
            6,
            -12,
            4
         ],
         "to" : [
            7,
            -11,
            6
         ]
      },
      {
         "from" : [
            9,
            -12,
            4
         ],
         "faces" : {
            "south" : {
               "texture" : "#candle",
               "uv" : [
                  0,
                  13,
                  2,
                  14
               ]
            },
            "up" : {
               "texture" : "#candle",
               "uv" : [
                  0,
                  0,
                  2,
                  2
               ]
            },
            "down" : {
               "uv" : [
                  0,
                  0,
                  2,
                  2
               ],
               "texture" : "#candle"
            },
            "east" : {
               "uv" : [
                  0,
                  10,
                  2,
                  11
               ],
               "texture" : "#candle"
            },
            "west" : {
               "texture" : "#candle",
               "uv" : [
                  0,
                  11,
                  2,
                  12
               ]
            },
            "north" : {
               "texture" : "#candle",
               "uv" : [
                  0,
                  12,
                  2,
                  13
               ]
            }
         },
         "to" : [
            11,
            -11,
            6
         ]
      }
   ]
}
