{
   "ambientocclusion" : false,
   "textures" : {
      "cup" : "minefield:blocks/bougie-coupelle",
      "particle" : "minefield:blocks/bougie",
      "wick" : "minefield:blocks/bougie-meche",
      "candle" : "minefield:blocks/bougie"
   },
   "elements" : [
      {
         "to" : [
            10,
            -6,
            10
         ],
         "from" : [
            7,
            -11,
            7
         ],
         "faces" : {
            "down" : {
               "uv" : [
                  0,
                  0,
                  3,
                  3
               ],
               "texture" : "#candle"
            },
            "up" : {
               "uv" : [
                  0,
                  0,
                  3,
                  3
               ],
               "texture" : "#candle"
            },
            "south" : {
               "texture" : "#candle",
               "uv" : [
                  0,
                  11,
                  3,
                  16
               ]
            },
            "west" : {
               "uv" : [
                  0,
                  11,
                  3,
                  16
               ],
               "texture" : "#candle"
            },
            "north" : {
               "texture" : "#candle",
               "uv" : [
                  0,
                  11,
                  3,
                  16
               ]
            },
            "east" : {
               "texture" : "#candle",
               "uv" : [
                  0,
                  11,
                  3,
                  16
               ]
            }
         }
      },
      {
         "faces" : {
            "up" : {
               "texture" : "#wick",
               "uv" : [
                  0,
                  0,
                  1,
                  1
               ]
            },
            "down" : {
               "texture" : "#wick",
               "uv" : [
                  0,
                  1,
                  1,
                  2
               ]
            },
            "south" : {
               "uv" : [
                  1,
                  0,
                  2,
                  1
               ],
               "texture" : "#wick"
            },
            "west" : {
               "texture" : "#wick",
               "uv" : [
                  2,
                  2,
                  3,
                  3
               ]
            },
            "north" : {
               "texture" : "#wick",
               "uv" : [
                  1,
                  1,
                  2,
                  2
               ]
            },
            "east" : {
               "texture" : "#wick",
               "uv" : [
                  2,
                  1,
                  3,
                  2
               ]
            }
         },
         "from" : [
            8,
            -6,
            8
         ],
         "to" : [
            9,
            -5,
            9
         ]
      },
      {
         "to" : [
            7,
            -10,
            8
         ],
         "faces" : {
            "west" : {
               "uv" : [
                  0,
                  11,
                  1,
                  12
               ],
               "texture" : "#candle"
            },
            "north" : {
               "uv" : [
                  0,
                  12,
                  1,
                  13
               ],
               "texture" : "#candle"
            },
            "east" : {
               "texture" : "#candle",
               "uv" : [
                  0,
                  10,
                  1,
                  11
               ]
            },
            "down" : {
               "texture" : "#candle",
               "uv" : [
                  0,
                  0,
                  1,
                  1
               ]
            },
            "up" : {
               "texture" : "#candle",
               "uv" : [
                  0,
                  0,
                  1,
                  1
               ]
            },
            "south" : {
               "uv" : [
                  0,
                  13,
                  1,
                  14
               ],
               "texture" : "#candle"
            }
         },
         "from" : [
            6,
            -11,
            7
         ]
      },
      {
         "from" : [
            10,
            -11,
            9
         ],
         "faces" : {
            "south" : {
               "texture" : "#candle",
               "uv" : [
                  0,
                  13,
                  1,
                  14
               ]
            },
            "up" : {
               "uv" : [
                  0,
                  0,
                  1,
                  2
               ],
               "texture" : "#candle"
            },
            "down" : {
               "texture" : "#candle",
               "uv" : [
                  0,
                  0,
                  1,
                  2
               ]
            },
            "east" : {
               "texture" : "#candle",
               "uv" : [
                  0,
                  10,
                  1,
                  11
               ]
            },
            "west" : {
               "uv" : [
                  0,
                  11,
                  1,
                  12
               ],
               "texture" : "#candle"
            },
            "north" : {
               "uv" : [
                  0,
                  12,
                  1,
                  13
               ],
               "texture" : "#candle"
            }
         },
         "to" : [
            11,
            -10,
            11
         ]
      },
      {
         "faces" : {
            "east" : {
               "texture" : "#candle",
               "uv" : [
                  0,
                  10,
                  2,
                  11
               ]
            },
            "north" : {
               "texture" : "#candle",
               "uv" : [
                  0,
                  12,
                  2,
                  13
               ]
            },
            "west" : {
               "texture" : "#candle",
               "uv" : [
                  0,
                  11,
                  2,
                  12
               ]
            },
            "south" : {
               "uv" : [
                  0,
                  13,
                  2,
                  14
               ],
               "texture" : "#candle"
            },
            "up" : {
               "texture" : "#candle",
               "uv" : [
                  0,
                  0,
                  2,
                  2
               ]
            },
            "down" : {
               "uv" : [
                  0,
                  0,
                  2,
                  2
               ],
               "texture" : "#candle"
            }
         },
         "from" : [
            9,
            -11,
            9
         ],
         "to" : [
            11,
            -10,
            11
         ]
      }
   ]
}
