{
   "elements" : [
      {
         "to" : [
            14,
            8,
            10
         ],
         "faces" : {
            "south" : {
               "uv" : [
                  0,
                  8,
                  3,
                  16
               ],
               "texture" : "#candle"
            },
            "up" : {
               "texture" : "#candle",
               "uv" : [
                  0,
                  0,
                  3,
                  3
               ]
            },
            "down" : {
               "uv" : [
                  0,
                  0,
                  3,
                  3
               ],
               "texture" : "#candle"
            },
            "east" : {
               "uv" : [
                  0,
                  8,
                  3,
                  16
               ],
               "texture" : "#candle"
            },
            "west" : {
               "texture" : "#candle",
               "uv" : [
                  0,
                  8,
                  3,
                  16
               ]
            },
            "north" : {
               "texture" : "#candle",
               "uv" : [
                  0,
                  8,
                  3,
                  16
               ]
            }
         },
         "from" : [
            11,
            0,
            7
         ]
      },
      {
         "from" : [
            12,
            8,
            8
         ],
         "faces" : {
            "east" : {
               "uv" : [
                  2,
                  1,
                  3,
                  2
               ],
               "texture" : "#wick"
            },
            "north" : {
               "texture" : "#wick",
               "uv" : [
                  1,
                  1,
                  2,
                  2
               ]
            },
            "west" : {
               "uv" : [
                  2,
                  2,
                  3,
                  3
               ],
               "texture" : "#wick"
            },
            "south" : {
               "texture" : "#wick",
               "uv" : [
                  1,
                  0,
                  2,
                  1
               ]
            },
            "up" : {
               "texture" : "#wick",
               "uv" : [
                  0,
                  0,
                  1,
                  1
               ]
            },
            "down" : {
               "texture" : "#wick",
               "uv" : [
                  0,
                  1,
                  1,
                  2
               ]
            }
         },
         "to" : [
            13,
            9,
            9
         ]
      },
      {
         "from" : [
            10,
            0,
            7
         ],
         "faces" : {
            "up" : {
               "uv" : [
                  0,
                  0,
                  1,
                  1
               ],
               "texture" : "#candle"
            },
            "down" : {
               "texture" : "#candle",
               "uv" : [
                  0,
                  0,
                  1,
                  1
               ]
            },
            "south" : {
               "texture" : "#candle",
               "uv" : [
                  0,
                  13,
                  1,
                  14
               ]
            },
            "west" : {
               "uv" : [
                  0,
                  11,
                  1,
                  12
               ],
               "texture" : "#candle"
            },
            "north" : {
               "texture" : "#candle",
               "uv" : [
                  0,
                  12,
                  1,
                  13
               ]
            },
            "east" : {
               "uv" : [
                  0,
                  10,
                  1,
                  11
               ],
               "texture" : "#candle"
            }
         },
         "to" : [
            11,
            1,
            8
         ]
      },
      {
         "to" : [
            15,
            1,
            11
         ],
         "from" : [
            14,
            0,
            9
         ],
         "faces" : {
            "down" : {
               "uv" : [
                  0,
                  0,
                  1,
                  2
               ],
               "texture" : "#candle"
            },
            "up" : {
               "uv" : [
                  0,
                  0,
                  1,
                  2
               ],
               "texture" : "#candle"
            },
            "south" : {
               "uv" : [
                  0,
                  13,
                  1,
                  14
               ],
               "texture" : "#candle"
            },
            "west" : {
               "texture" : "#candle",
               "uv" : [
                  0,
                  11,
                  1,
                  12
               ]
            },
            "north" : {
               "uv" : [
                  0,
                  12,
                  1,
                  13
               ],
               "texture" : "#candle"
            },
            "east" : {
               "texture" : "#candle",
               "uv" : [
                  0,
                  10,
                  1,
                  11
               ]
            }
         }
      },
      {
         "to" : [
            15,
            1,
            11
         ],
         "faces" : {
            "west" : {
               "uv" : [
                  0,
                  11,
                  2,
                  12
               ],
               "texture" : "#candle"
            },
            "north" : {
               "uv" : [
                  0,
                  12,
                  2,
                  13
               ],
               "texture" : "#candle"
            },
            "east" : {
               "uv" : [
                  0,
                  10,
                  2,
                  11
               ],
               "texture" : "#candle"
            },
            "up" : {
               "texture" : "#candle",
               "uv" : [
                  0,
                  0,
                  2,
                  2
               ]
            },
            "down" : {
               "uv" : [
                  0,
                  0,
                  2,
                  2
               ],
               "texture" : "#candle"
            },
            "south" : {
               "uv" : [
                  0,
                  13,
                  2,
                  14
               ],
               "texture" : "#candle"
            }
         },
         "from" : [
            13,
            0,
            9
         ]
      }
   ],
   "textures" : {
      "candle" : "minefield:blocks/bougie",
      "particle" : "minefield:blocks/bougie",
      "wick" : "minefield:blocks/bougie-meche",
      "cup" : "minefield:blocks/bougie-coupelle"
   },
   "ambientocclusion" : false
}
