{
   "textures" : {
      "candle" : "minefield:blocks/bougie",
      "cup" : "minefield:blocks/bougie-coupelle",
      "particle" : "minefield:blocks/bougie",
      "wick" : "minefield:blocks/bougie-meche"
   },
   "elements" : [
      {
         "from" : [
            2,
            0,
            2
         ],
         "faces" : {
            "down" : {
               "texture" : "#candle",
               "uv" : [
                  0,
                  0,
                  3,
                  3
               ]
            },
            "up" : {
               "texture" : "#candle",
               "uv" : [
                  0,
                  0,
                  3,
                  3
               ]
            },
            "south" : {
               "uv" : [
                  0,
                  11,
                  3,
                  16
               ],
               "texture" : "#candle"
            },
            "west" : {
               "texture" : "#candle",
               "uv" : [
                  0,
                  11,
                  3,
                  16
               ]
            },
            "north" : {
               "uv" : [
                  0,
                  11,
                  3,
                  16
               ],
               "texture" : "#candle"
            },
            "east" : {
               "uv" : [
                  0,
                  11,
                  3,
                  16
               ],
               "texture" : "#candle"
            }
         },
         "to" : [
            5,
            4,
            5
         ]
      },
      {
         "faces" : {
            "west" : {
               "uv" : [
                  2,
                  2,
                  3,
                  3
               ],
               "texture" : "#wick"
            },
            "north" : {
               "uv" : [
                  1,
                  1,
                  2,
                  2
               ],
               "texture" : "#wick"
            },
            "east" : {
               "uv" : [
                  2,
                  1,
                  3,
                  2
               ],
               "texture" : "#wick"
            },
            "down" : {
               "texture" : "#wick",
               "uv" : [
                  0,
                  1,
                  1,
                  2
               ]
            },
            "up" : {
               "uv" : [
                  0,
                  0,
                  1,
                  1
               ],
               "texture" : "#wick"
            },
            "south" : {
               "uv" : [
                  1,
                  0,
                  2,
                  1
               ],
               "texture" : "#wick"
            }
         },
         "from" : [
            3,
            4,
            3
         ],
         "to" : [
            4,
            5,
            4
         ]
      },
      {
         "faces" : {
            "up" : {
               "texture" : "#cup",
               "uv" : [
                  0,
                  0,
                  5,
                  5
               ]
            },
            "down" : {
               "uv" : [
                  0,
                  0,
                  5,
                  5
               ],
               "texture" : "#cup"
            }
         },
         "from" : [
            1,
            -1,
            1
         ],
         "to" : [
            6,
            0,
            6
         ]
      },
      {
         "to" : [
            1,
            1,
            6
         ],
         "from" : [
            0,
            -1,
            1
         ],
         "faces" : {
            "up" : {
               "uv" : [
                  15,
                  0,
                  16,
                  5
               ],
               "texture" : "#cup"
            },
            "down" : {
               "uv" : [
                  14,
                  0,
                  15,
                  5
               ],
               "texture" : "#cup"
            },
            "south" : {
               "texture" : "#cup",
               "uv" : [
                  10,
                  0,
                  11,
                  2
               ]
            },
            "north" : {
               "uv" : [
                  10,
                  0,
                  11,
                  2
               ],
               "texture" : "#cup"
            },
            "west" : {
               "uv" : [
                  0,
                  0,
                  5,
                  2
               ],
               "texture" : "#cup"
            },
            "east" : {
               "uv" : [
                  0,
                  0,
                  5,
                  2
               ],
               "texture" : "#cup"
            }
         }
      },
      {
         "from" : [
            6,
            -1,
            1
         ],
         "faces" : {
            "west" : {
               "uv" : [
                  0,
                  0,
                  5,
                  2
               ],
               "texture" : "#cup"
            },
            "north" : {
               "texture" : "#cup",
               "uv" : [
                  10,
                  0,
                  11,
                  2
               ]
            },
            "east" : {
               "texture" : "#cup",
               "uv" : [
                  0,
                  0,
                  5,
                  2
               ]
            },
            "up" : {
               "texture" : "#cup",
               "uv" : [
                  13,
                  0,
                  14,
                  5
               ]
            },
            "down" : {
               "uv" : [
                  12,
                  0,
                  13,
                  5
               ],
               "texture" : "#cup"
            },
            "south" : {
               "uv" : [
                  10,
                  0,
                  11,
                  2
               ],
               "texture" : "#cup"
            }
         },
         "to" : [
            7,
            1,
            6
         ]
      },
      {
         "from" : [
            1,
            -1,
            0
         ],
         "faces" : {
            "west" : {
               "uv" : [
                  11,
                  0,
                  12,
                  2
               ],
               "texture" : "#cup"
            },
            "north" : {
               "uv" : [
                  0,
                  0,
                  5,
                  2
               ],
               "texture" : "#cup"
            },
            "east" : {
               "texture" : "#cup",
               "uv" : [
                  13,
                  0,
                  14,
                  2
               ]
            },
            "up" : {
               "uv" : [
                  0,
                  15,
                  5,
                  16
               ],
               "texture" : "#cup"
            },
            "down" : {
               "texture" : "#cup",
               "uv" : [
                  0,
                  14,
                  5,
                  15
               ]
            },
            "south" : {
               "texture" : "#cup",
               "uv" : [
                  0,
                  0,
                  5,
                  2
               ]
            }
         },
         "to" : [
            6,
            1,
            1
         ]
      },
      {
         "from" : [
            1,
            -1,
            6
         ],
         "faces" : {
            "south" : {
               "texture" : "#cup",
               "uv" : [
                  0,
                  0,
                  5,
                  2
               ]
            },
            "up" : {
               "uv" : [
                  0,
                  15,
                  5,
                  16
               ],
               "texture" : "#cup"
            },
            "down" : {
               "texture" : "#cup",
               "uv" : [
                  0,
                  14,
                  5,
                  15
               ]
            },
            "east" : {
               "uv" : [
                  13,
                  0,
                  14,
                  2
               ],
               "texture" : "#cup"
            },
            "west" : {
               "uv" : [
                  11,
                  0,
                  12,
                  2
               ],
               "texture" : "#cup"
            },
            "north" : {
               "texture" : "#cup",
               "uv" : [
                  0,
                  0,
                  5,
                  2
               ]
            }
         },
         "to" : [
            6,
            1,
            7
         ]
      },
      {
         "faces" : {
            "west" : {
               "uv" : [
                  0,
                  11,
                  1,
                  12
               ],
               "texture" : "#candle"
            },
            "north" : {
               "texture" : "#candle",
               "uv" : [
                  0,
                  12,
                  1,
                  13
               ]
            },
            "east" : {
               "texture" : "#candle",
               "uv" : [
                  0,
                  10,
                  1,
                  11
               ]
            },
            "up" : {
               "texture" : "#candle",
               "uv" : [
                  0,
                  0,
                  1,
                  1
               ]
            },
            "down" : {
               "uv" : [
                  0,
                  0,
                  1,
                  1
               ],
               "texture" : "#candle"
            },
            "south" : {
               "uv" : [
                  0,
                  13,
                  1,
                  14
               ],
               "texture" : "#candle"
            }
         },
         "from" : [
            1,
            0,
            2
         ],
         "to" : [
            2,
            1,
            3
         ]
      },
      {
         "faces" : {
            "east" : {
               "uv" : [
                  0,
                  10,
                  1,
                  11
               ],
               "texture" : "#candle"
            },
            "north" : {
               "uv" : [
                  0,
                  12,
                  1,
                  13
               ],
               "texture" : "#candle"
            },
            "west" : {
               "uv" : [
                  0,
                  11,
                  1,
                  12
               ],
               "texture" : "#candle"
            },
            "south" : {
               "uv" : [
                  0,
                  13,
                  1,
                  14
               ],
               "texture" : "#candle"
            },
            "up" : {
               "texture" : "#candle",
               "uv" : [
                  0,
                  0,
                  1,
                  2
               ]
            },
            "down" : {
               "texture" : "#candle",
               "uv" : [
                  0,
                  0,
                  1,
                  2
               ]
            }
         },
         "from" : [
            5,
            0,
            4
         ],
         "to" : [
            6,
            1,
            6
         ]
      },
      {
         "from" : [
            4,
            0,
            4
         ],
         "faces" : {
            "down" : {
               "uv" : [
                  0,
                  0,
                  2,
                  2
               ],
               "texture" : "#candle"
            },
            "up" : {
               "uv" : [
                  0,
                  0,
                  2,
                  2
               ],
               "texture" : "#candle"
            },
            "south" : {
               "texture" : "#candle",
               "uv" : [
                  0,
                  13,
                  2,
                  14
               ]
            },
            "north" : {
               "uv" : [
                  0,
                  12,
                  2,
                  13
               ],
               "texture" : "#candle"
            },
            "west" : {
               "uv" : [
                  0,
                  11,
                  2,
                  12
               ],
               "texture" : "#candle"
            },
            "east" : {
               "texture" : "#candle",
               "uv" : [
                  0,
                  10,
                  2,
                  11
               ]
            }
         },
         "to" : [
            6,
            1,
            6
         ]
      }
   ],
   "ambientocclusion" : false
}
