{
   "ambientocclusion" : false,
   "elements" : [
      {
         "faces" : {
            "east" : {
               "texture" : "#candle",
               "uv" : [
                  0,
                  11,
                  3,
                  16
               ]
            },
            "west" : {
               "texture" : "#candle",
               "uv" : [
                  0,
                  11,
                  3,
                  16
               ]
            },
            "north" : {
               "texture" : "#candle",
               "uv" : [
                  0,
                  11,
                  3,
                  16
               ]
            },
            "south" : {
               "uv" : [
                  0,
                  11,
                  3,
                  16
               ],
               "texture" : "#candle"
            },
            "up" : {
               "texture" : "#candle",
               "uv" : [
                  0,
                  0,
                  3,
                  3
               ]
            },
            "down" : {
               "texture" : "#candle",
               "uv" : [
                  0,
                  0,
                  3,
                  3
               ]
            }
         },
         "from" : [
            7,
            -9,
            7
         ],
         "to" : [
            10,
            -5,
            10
         ]
      },
      {
         "faces" : {
            "south" : {
               "uv" : [
                  1,
                  0,
                  2,
                  1
               ],
               "texture" : "#wick"
            },
            "up" : {
               "texture" : "#wick",
               "uv" : [
                  0,
                  0,
                  1,
                  1
               ]
            },
            "down" : {
               "uv" : [
                  0,
                  1,
                  1,
                  2
               ],
               "texture" : "#wick"
            },
            "east" : {
               "texture" : "#wick",
               "uv" : [
                  2,
                  1,
                  3,
                  2
               ]
            },
            "north" : {
               "texture" : "#wick",
               "uv" : [
                  1,
                  1,
                  2,
                  2
               ]
            },
            "west" : {
               "texture" : "#wick",
               "uv" : [
                  2,
                  2,
                  3,
                  3
               ]
            }
         },
         "from" : [
            8,
            -5,
            8
         ],
         "to" : [
            9,
            -4,
            9
         ]
      },
      {
         "to" : [
            11,
            -9,
            11
         ],
         "faces" : {
            "up" : {
               "uv" : [
                  0,
                  0,
                  5,
                  5
               ],
               "texture" : "#cup"
            },
            "down" : {
               "texture" : "#cup",
               "uv" : [
                  0,
                  0,
                  5,
                  5
               ]
            }
         },
         "from" : [
            6,
            -10,
            6
         ]
      },
      {
         "from" : [
            5,
            -10,
            6
         ],
         "faces" : {
            "south" : {
               "texture" : "#cup",
               "uv" : [
                  10,
                  0,
                  11,
                  2
               ]
            },
            "down" : {
               "texture" : "#cup",
               "uv" : [
                  14,
                  0,
                  15,
                  5
               ]
            },
            "up" : {
               "uv" : [
                  15,
                  0,
                  16,
                  5
               ],
               "texture" : "#cup"
            },
            "east" : {
               "texture" : "#cup",
               "uv" : [
                  0,
                  0,
                  5,
                  2
               ]
            },
            "west" : {
               "texture" : "#cup",
               "uv" : [
                  0,
                  0,
                  5,
                  2
               ]
            },
            "north" : {
               "texture" : "#cup",
               "uv" : [
                  10,
                  0,
                  11,
                  2
               ]
            }
         },
         "to" : [
            6,
            -8,
            11
         ]
      },
      {
         "to" : [
            12,
            -8,
            11
         ],
         "faces" : {
            "east" : {
               "uv" : [
                  0,
                  0,
                  5,
                  2
               ],
               "texture" : "#cup"
            },
            "west" : {
               "texture" : "#cup",
               "uv" : [
                  0,
                  0,
                  5,
                  2
               ]
            },
            "north" : {
               "texture" : "#cup",
               "uv" : [
                  10,
                  0,
                  11,
                  2
               ]
            },
            "south" : {
               "texture" : "#cup",
               "uv" : [
                  10,
                  0,
                  11,
                  2
               ]
            },
            "down" : {
               "texture" : "#cup",
               "uv" : [
                  12,
                  0,
                  13,
                  5
               ]
            },
            "up" : {
               "texture" : "#cup",
               "uv" : [
                  13,
                  0,
                  14,
                  5
               ]
            }
         },
         "from" : [
            11,
            -10,
            6
         ]
      },
      {
         "from" : [
            6,
            -10,
            5
         ],
         "faces" : {
            "south" : {
               "texture" : "#cup",
               "uv" : [
                  0,
                  0,
                  5,
                  2
               ]
            },
            "down" : {
               "texture" : "#cup",
               "uv" : [
                  0,
                  14,
                  5,
                  15
               ]
            },
            "up" : {
               "uv" : [
                  0,
                  15,
                  5,
                  16
               ],
               "texture" : "#cup"
            },
            "east" : {
               "uv" : [
                  13,
                  0,
                  14,
                  2
               ],
               "texture" : "#cup"
            },
            "west" : {
               "uv" : [
                  11,
                  0,
                  12,
                  2
               ],
               "texture" : "#cup"
            },
            "north" : {
               "texture" : "#cup",
               "uv" : [
                  0,
                  0,
                  5,
                  2
               ]
            }
         },
         "to" : [
            11,
            -8,
            6
         ]
      },
      {
         "from" : [
            6,
            -10,
            11
         ],
         "faces" : {
            "down" : {
               "uv" : [
                  0,
                  14,
                  5,
                  15
               ],
               "texture" : "#cup"
            },
            "up" : {
               "uv" : [
                  0,
                  15,
                  5,
                  16
               ],
               "texture" : "#cup"
            },
            "south" : {
               "uv" : [
                  0,
                  0,
                  5,
                  2
               ],
               "texture" : "#cup"
            },
            "west" : {
               "uv" : [
                  11,
                  0,
                  12,
                  2
               ],
               "texture" : "#cup"
            },
            "north" : {
               "texture" : "#cup",
               "uv" : [
                  0,
                  0,
                  5,
                  2
               ]
            },
            "east" : {
               "texture" : "#cup",
               "uv" : [
                  13,
                  0,
                  14,
                  2
               ]
            }
         },
         "to" : [
            11,
            -8,
            12
         ]
      },
      {
         "to" : [
            7,
            -8,
            8
         ],
         "from" : [
            6,
            -9,
            7
         ],
         "faces" : {
            "west" : {
               "uv" : [
                  0,
                  11,
                  1,
                  12
               ],
               "texture" : "#candle"
            },
            "north" : {
               "texture" : "#candle",
               "uv" : [
                  0,
                  12,
                  1,
                  13
               ]
            },
            "east" : {
               "texture" : "#candle",
               "uv" : [
                  0,
                  10,
                  1,
                  11
               ]
            },
            "up" : {
               "uv" : [
                  0,
                  0,
                  1,
                  1
               ],
               "texture" : "#candle"
            },
            "down" : {
               "texture" : "#candle",
               "uv" : [
                  0,
                  0,
                  1,
                  1
               ]
            },
            "south" : {
               "uv" : [
                  0,
                  13,
                  1,
                  14
               ],
               "texture" : "#candle"
            }
         }
      },
      {
         "to" : [
            11,
            -8,
            11
         ],
         "from" : [
            10,
            -9,
            9
         ],
         "faces" : {
            "east" : {
               "texture" : "#candle",
               "uv" : [
                  0,
                  10,
                  1,
                  11
               ]
            },
            "north" : {
               "uv" : [
                  0,
                  12,
                  1,
                  13
               ],
               "texture" : "#candle"
            },
            "west" : {
               "texture" : "#candle",
               "uv" : [
                  0,
                  11,
                  1,
                  12
               ]
            },
            "south" : {
               "uv" : [
                  0,
                  13,
                  1,
                  14
               ],
               "texture" : "#candle"
            },
            "down" : {
               "uv" : [
                  0,
                  0,
                  1,
                  2
               ],
               "texture" : "#candle"
            },
            "up" : {
               "uv" : [
                  0,
                  0,
                  1,
                  2
               ],
               "texture" : "#candle"
            }
         }
      },
      {
         "faces" : {
            "down" : {
               "texture" : "#candle",
               "uv" : [
                  0,
                  0,
                  2,
                  2
               ]
            },
            "up" : {
               "texture" : "#candle",
               "uv" : [
                  0,
                  0,
                  2,
                  2
               ]
            },
            "south" : {
               "uv" : [
                  0,
                  13,
                  2,
                  14
               ],
               "texture" : "#candle"
            },
            "west" : {
               "texture" : "#candle",
               "uv" : [
                  0,
                  11,
                  2,
                  12
               ]
            },
            "north" : {
               "texture" : "#candle",
               "uv" : [
                  0,
                  12,
                  2,
                  13
               ]
            },
            "east" : {
               "texture" : "#candle",
               "uv" : [
                  0,
                  10,
                  2,
                  11
               ]
            }
         },
         "from" : [
            9,
            -9,
            9
         ],
         "to" : [
            11,
            -8,
            11
         ]
      }
   ],
   "textures" : {
      "candle" : "minefield:blocks/bougie",
      "wick" : "minefield:blocks/bougie-meche",
      "particle" : "minefield:blocks/bougie",
      "cup" : "minefield:blocks/bougie-coupelle"
   }
}
