{
   "textures" : {
      "particle" : "minefield:blocks/bougie",
      "wick" : "minefield:blocks/bougie-meche",
      "cup" : "minefield:blocks/bougie-coupelle",
      "candle" : "minefield:blocks/bougie"
   },
   "elements" : [
      {
         "from" : [
            2,
            -13,
            2
         ],
         "faces" : {
            "east" : {
               "texture" : "#candle",
               "uv" : [
                  0,
                  11,
                  3,
                  16
               ]
            },
            "north" : {
               "texture" : "#candle",
               "uv" : [
                  0,
                  11,
                  3,
                  16
               ]
            },
            "west" : {
               "uv" : [
                  0,
                  11,
                  3,
                  16
               ],
               "texture" : "#candle"
            },
            "south" : {
               "uv" : [
                  0,
                  11,
                  3,
                  16
               ],
               "texture" : "#candle"
            },
            "down" : {
               "uv" : [
                  0,
                  0,
                  3,
                  3
               ],
               "texture" : "#candle"
            },
            "up" : {
               "uv" : [
                  0,
                  0,
                  3,
                  3
               ],
               "texture" : "#candle"
            }
         },
         "to" : [
            5,
            -8,
            5
         ]
      },
      {
         "to" : [
            4,
            -7,
            4
         ],
         "faces" : {
            "south" : {
               "texture" : "#wick",
               "uv" : [
                  1,
                  0,
                  2,
                  1
               ]
            },
            "up" : {
               "uv" : [
                  0,
                  0,
                  1,
                  1
               ],
               "texture" : "#wick"
            },
            "down" : {
               "uv" : [
                  0,
                  1,
                  1,
                  2
               ],
               "texture" : "#wick"
            },
            "east" : {
               "texture" : "#wick",
               "uv" : [
                  2,
                  1,
                  3,
                  2
               ]
            },
            "west" : {
               "uv" : [
                  2,
                  2,
                  3,
                  3
               ],
               "texture" : "#wick"
            },
            "north" : {
               "texture" : "#wick",
               "uv" : [
                  1,
                  1,
                  2,
                  2
               ]
            }
         },
         "from" : [
            3,
            -8,
            3
         ]
      },
      {
         "to" : [
            2,
            -12,
            3
         ],
         "from" : [
            1,
            -13,
            2
         ],
         "faces" : {
            "south" : {
               "uv" : [
                  0,
                  13,
                  1,
                  14
               ],
               "texture" : "#candle"
            },
            "down" : {
               "texture" : "#candle",
               "uv" : [
                  0,
                  0,
                  1,
                  1
               ]
            },
            "up" : {
               "texture" : "#candle",
               "uv" : [
                  0,
                  0,
                  1,
                  1
               ]
            },
            "east" : {
               "uv" : [
                  0,
                  10,
                  1,
                  11
               ],
               "texture" : "#candle"
            },
            "north" : {
               "uv" : [
                  0,
                  12,
                  1,
                  13
               ],
               "texture" : "#candle"
            },
            "west" : {
               "uv" : [
                  0,
                  11,
                  1,
                  12
               ],
               "texture" : "#candle"
            }
         }
      },
      {
         "to" : [
            6,
            -12,
            6
         ],
         "faces" : {
            "down" : {
               "uv" : [
                  0,
                  0,
                  1,
                  2
               ],
               "texture" : "#candle"
            },
            "up" : {
               "texture" : "#candle",
               "uv" : [
                  0,
                  0,
                  1,
                  2
               ]
            },
            "south" : {
               "uv" : [
                  0,
                  13,
                  1,
                  14
               ],
               "texture" : "#candle"
            },
            "west" : {
               "texture" : "#candle",
               "uv" : [
                  0,
                  11,
                  1,
                  12
               ]
            },
            "north" : {
               "texture" : "#candle",
               "uv" : [
                  0,
                  12,
                  1,
                  13
               ]
            },
            "east" : {
               "uv" : [
                  0,
                  10,
                  1,
                  11
               ],
               "texture" : "#candle"
            }
         },
         "from" : [
            5,
            -13,
            4
         ]
      },
      {
         "to" : [
            6,
            -12,
            6
         ],
         "from" : [
            4,
            -13,
            4
         ],
         "faces" : {
            "south" : {
               "uv" : [
                  0,
                  13,
                  2,
                  14
               ],
               "texture" : "#candle"
            },
            "up" : {
               "texture" : "#candle",
               "uv" : [
                  0,
                  0,
                  2,
                  2
               ]
            },
            "down" : {
               "texture" : "#candle",
               "uv" : [
                  0,
                  0,
                  2,
                  2
               ]
            },
            "east" : {
               "uv" : [
                  0,
                  10,
                  2,
                  11
               ],
               "texture" : "#candle"
            },
            "west" : {
               "uv" : [
                  0,
                  11,
                  2,
                  12
               ],
               "texture" : "#candle"
            },
            "north" : {
               "texture" : "#candle",
               "uv" : [
                  0,
                  12,
                  2,
                  13
               ]
            }
         }
      }
   ],
   "ambientocclusion" : false
}
