{
   "elements" : [
      {
         "from" : [
            10,
            1,
            7
         ],
         "faces" : {
            "south" : {
               "texture" : "#candle",
               "uv" : [
                  0,
                  5,
                  3,
                  16
               ]
            },
            "up" : {
               "texture" : "#candle",
               "uv" : [
                  0,
                  0,
                  3,
                  3
               ]
            },
            "down" : {
               "uv" : [
                  0,
                  0,
                  3,
                  3
               ],
               "texture" : "#candle"
            },
            "east" : {
               "uv" : [
                  0,
                  5,
                  3,
                  16
               ],
               "texture" : "#candle"
            },
            "north" : {
               "uv" : [
                  0,
                  5,
                  3,
                  16
               ],
               "texture" : "#candle"
            },
            "west" : {
               "texture" : "#candle",
               "uv" : [
                  0,
                  5,
                  3,
                  16
               ]
            }
         },
         "to" : [
            13,
            11,
            10
         ]
      },
      {
         "faces" : {
            "north" : {
               "uv" : [
                  1,
                  1,
                  2,
                  2
               ],
               "texture" : "#wick"
            },
            "west" : {
               "texture" : "#wick",
               "uv" : [
                  2,
                  2,
                  3,
                  3
               ]
            },
            "east" : {
               "uv" : [
                  2,
                  1,
                  3,
                  2
               ],
               "texture" : "#wick"
            },
            "down" : {
               "uv" : [
                  0,
                  1,
                  1,
                  2
               ],
               "texture" : "#wick"
            },
            "up" : {
               "texture" : "#wick",
               "uv" : [
                  0,
                  0,
                  1,
                  1
               ]
            },
            "south" : {
               "uv" : [
                  1,
                  0,
                  2,
                  1
               ],
               "texture" : "#wick"
            }
         },
         "from" : [
            11,
            11,
            8
         ],
         "to" : [
            12,
            12,
            9
         ]
      },
      {
         "from" : [
            9,
            0,
            6
         ],
         "faces" : {
            "up" : {
               "uv" : [
                  0,
                  0,
                  5,
                  5
               ],
               "texture" : "#cup"
            },
            "down" : {
               "texture" : "#cup",
               "uv" : [
                  0,
                  0,
                  5,
                  5
               ]
            }
         },
         "to" : [
            14,
            1,
            11
         ]
      },
      {
         "faces" : {
            "west" : {
               "texture" : "#cup",
               "uv" : [
                  0,
                  0,
                  5,
                  2
               ]
            },
            "north" : {
               "texture" : "#cup",
               "uv" : [
                  10,
                  0,
                  11,
                  2
               ]
            },
            "east" : {
               "texture" : "#cup",
               "uv" : [
                  0,
                  0,
                  5,
                  2
               ]
            },
            "up" : {
               "texture" : "#cup",
               "uv" : [
                  15,
                  0,
                  16,
                  5
               ]
            },
            "down" : {
               "uv" : [
                  14,
                  0,
                  15,
                  5
               ],
               "texture" : "#cup"
            },
            "south" : {
               "texture" : "#cup",
               "uv" : [
                  10,
                  0,
                  11,
                  2
               ]
            }
         },
         "from" : [
            8,
            0,
            6
         ],
         "to" : [
            9,
            2,
            11
         ]
      },
      {
         "to" : [
            15,
            2,
            11
         ],
         "from" : [
            14,
            0,
            6
         ],
         "faces" : {
            "south" : {
               "uv" : [
                  10,
                  0,
                  11,
                  2
               ],
               "texture" : "#cup"
            },
            "up" : {
               "uv" : [
                  13,
                  0,
                  14,
                  5
               ],
               "texture" : "#cup"
            },
            "down" : {
               "uv" : [
                  12,
                  0,
                  13,
                  5
               ],
               "texture" : "#cup"
            },
            "east" : {
               "texture" : "#cup",
               "uv" : [
                  0,
                  0,
                  5,
                  2
               ]
            },
            "west" : {
               "texture" : "#cup",
               "uv" : [
                  0,
                  0,
                  5,
                  2
               ]
            },
            "north" : {
               "uv" : [
                  10,
                  0,
                  11,
                  2
               ],
               "texture" : "#cup"
            }
         }
      },
      {
         "from" : [
            9,
            0,
            5
         ],
         "faces" : {
            "east" : {
               "texture" : "#cup",
               "uv" : [
                  13,
                  0,
                  14,
                  2
               ]
            },
            "north" : {
               "uv" : [
                  0,
                  0,
                  5,
                  2
               ],
               "texture" : "#cup"
            },
            "west" : {
               "texture" : "#cup",
               "uv" : [
                  11,
                  0,
                  12,
                  2
               ]
            },
            "south" : {
               "texture" : "#cup",
               "uv" : [
                  0,
                  0,
                  5,
                  2
               ]
            },
            "up" : {
               "uv" : [
                  0,
                  15,
                  5,
                  16
               ],
               "texture" : "#cup"
            },
            "down" : {
               "texture" : "#cup",
               "uv" : [
                  0,
                  14,
                  5,
                  15
               ]
            }
         },
         "to" : [
            14,
            2,
            6
         ]
      },
      {
         "to" : [
            14,
            2,
            12
         ],
         "from" : [
            9,
            0,
            11
         ],
         "faces" : {
            "south" : {
               "texture" : "#cup",
               "uv" : [
                  0,
                  0,
                  5,
                  2
               ]
            },
            "up" : {
               "texture" : "#cup",
               "uv" : [
                  0,
                  15,
                  5,
                  16
               ]
            },
            "down" : {
               "texture" : "#cup",
               "uv" : [
                  0,
                  14,
                  5,
                  15
               ]
            },
            "east" : {
               "uv" : [
                  13,
                  0,
                  14,
                  2
               ],
               "texture" : "#cup"
            },
            "north" : {
               "uv" : [
                  0,
                  0,
                  5,
                  2
               ],
               "texture" : "#cup"
            },
            "west" : {
               "uv" : [
                  11,
                  0,
                  12,
                  2
               ],
               "texture" : "#cup"
            }
         }
      },
      {
         "to" : [
            19,
            4,
            11
         ],
         "faces" : {
            "south" : {
               "texture" : "#cup",
               "uv" : [
                  10,
                  0,
                  11,
                  2
               ]
            },
            "down" : {
               "texture" : "#cup",
               "uv" : [
                  8,
                  0,
                  9,
                  5
               ]
            },
            "up" : {
               "texture" : "#cup",
               "uv" : [
                  9,
                  0,
                  10,
                  5
               ]
            },
            "east" : {
               "texture" : "#cup",
               "uv" : [
                  0,
                  0,
                  5,
                  2
               ]
            },
            "north" : {
               "texture" : "#cup",
               "uv" : [
                  10,
                  0,
                  11,
                  2
               ]
            },
            "west" : {
               "uv" : [
                  0,
                  0,
                  5,
                  2
               ],
               "texture" : "#cup"
            }
         },
         "from" : [
            18,
            0,
            6
         ]
      },
      {
         "faces" : {
            "up" : {
               "texture" : "#cup",
               "uv" : [
                  2,
                  4,
                  6,
                  8
               ]
            },
            "down" : {
               "texture" : "#cup",
               "uv" : [
                  6,
                  4,
                  12,
                  8
               ]
            },
            "south" : {
               "uv" : [
                  10,
                  0,
                  13,
                  2
               ],
               "texture" : "#cup"
            },
            "north" : {
               "texture" : "#cup",
               "uv" : [
                  10,
                  0,
                  13,
                  2
               ]
            }
         },
         "from" : [
            15,
            0,
            7
         ],
         "to" : [
            18,
            2,
            10
         ]
      },
      {
         "to" : [
            10,
            2,
            8
         ],
         "faces" : {
            "up" : {
               "texture" : "#candle",
               "uv" : [
                  0,
                  0,
                  1,
                  1
               ]
            },
            "down" : {
               "texture" : "#candle",
               "uv" : [
                  0,
                  0,
                  1,
                  1
               ]
            },
            "south" : {
               "uv" : [
                  0,
                  13,
                  1,
                  14
               ],
               "texture" : "#candle"
            },
            "west" : {
               "texture" : "#candle",
               "uv" : [
                  0,
                  11,
                  1,
                  12
               ]
            },
            "north" : {
               "texture" : "#candle",
               "uv" : [
                  0,
                  12,
                  1,
                  13
               ]
            },
            "east" : {
               "uv" : [
                  0,
                  10,
                  1,
                  11
               ],
               "texture" : "#candle"
            }
         },
         "from" : [
            9,
            1,
            7
         ]
      },
      {
         "faces" : {
            "west" : {
               "texture" : "#candle",
               "uv" : [
                  0,
                  11,
                  1,
                  12
               ]
            },
            "north" : {
               "texture" : "#candle",
               "uv" : [
                  0,
                  12,
                  1,
                  13
               ]
            },
            "east" : {
               "uv" : [
                  0,
                  10,
                  1,
                  11
               ],
               "texture" : "#candle"
            },
            "down" : {
               "texture" : "#candle",
               "uv" : [
                  0,
                  0,
                  1,
                  2
               ]
            },
            "up" : {
               "uv" : [
                  0,
                  0,
                  1,
                  2
               ],
               "texture" : "#candle"
            },
            "south" : {
               "texture" : "#candle",
               "uv" : [
                  0,
                  13,
                  1,
                  14
               ]
            }
         },
         "from" : [
            13,
            1,
            9
         ],
         "to" : [
            14,
            2,
            11
         ]
      },
      {
         "faces" : {
            "south" : {
               "uv" : [
                  0,
                  13,
                  2,
                  14
               ],
               "texture" : "#candle"
            },
            "down" : {
               "texture" : "#candle",
               "uv" : [
                  0,
                  0,
                  2,
                  2
               ]
            },
            "up" : {
               "uv" : [
                  0,
                  0,
                  2,
                  2
               ],
               "texture" : "#candle"
            },
            "east" : {
               "uv" : [
                  0,
                  10,
                  2,
                  11
               ],
               "texture" : "#candle"
            },
            "north" : {
               "uv" : [
                  0,
                  12,
                  2,
                  13
               ],
               "texture" : "#candle"
            },
            "west" : {
               "uv" : [
                  0,
                  11,
                  2,
                  12
               ],
               "texture" : "#candle"
            }
         },
         "from" : [
            12,
            1,
            9
         ],
         "to" : [
            14,
            2,
            11
         ]
      }
   ],
   "textures" : {
      "candle" : "minefield:blocks/bougie",
      "cup" : "minefield:blocks/bougie-coupelle",
      "particle" : "minefield:blocks/bougie",
      "wick" : "minefield:blocks/bougie-meche"
   },
   "ambientocclusion" : false
}
