{
   "ambientocclusion" : false,
   "textures" : {
      "wick" : "minefield:blocks/bougie-meche",
      "particle" : "minefield:blocks/bougie",
      "cup" : "minefield:blocks/bougie-coupelle",
      "candle" : "minefield:blocks/bougie"
   },
   "elements" : [
      {
         "faces" : {
            "south" : {
               "uv" : [
                  0,
                  5,
                  3,
                  16
               ],
               "texture" : "#candle"
            },
            "down" : {
               "uv" : [
                  0,
                  0,
                  3,
                  3
               ],
               "texture" : "#candle"
            },
            "up" : {
               "uv" : [
                  0,
                  0,
                  3,
                  3
               ],
               "texture" : "#candle"
            },
            "east" : {
               "uv" : [
                  0,
                  5,
                  3,
                  16
               ],
               "texture" : "#candle"
            },
            "west" : {
               "uv" : [
                  0,
                  5,
                  3,
                  16
               ],
               "texture" : "#candle"
            },
            "north" : {
               "uv" : [
                  0,
                  5,
                  3,
                  16
               ],
               "texture" : "#candle"
            }
         },
         "from" : [
            7,
            -1,
            2
         ],
         "to" : [
            10,
            10,
            5
         ]
      },
      {
         "to" : [
            9,
            11,
            4
         ],
         "faces" : {
            "east" : {
               "uv" : [
                  2,
                  1,
                  3,
                  2
               ],
               "texture" : "#wick"
            },
            "north" : {
               "uv" : [
                  1,
                  1,
                  2,
                  2
               ],
               "texture" : "#wick"
            },
            "west" : {
               "texture" : "#wick",
               "uv" : [
                  2,
                  2,
                  3,
                  3
               ]
            },
            "south" : {
               "uv" : [
                  1,
                  0,
                  2,
                  1
               ],
               "texture" : "#wick"
            },
            "up" : {
               "texture" : "#wick",
               "uv" : [
                  0,
                  0,
                  1,
                  1
               ]
            },
            "down" : {
               "uv" : [
                  0,
                  1,
                  1,
                  2
               ],
               "texture" : "#wick"
            }
         },
         "from" : [
            8,
            10,
            3
         ]
      },
      {
         "faces" : {
            "south" : {
               "texture" : "#candle",
               "uv" : [
                  0,
                  13,
                  1,
                  14
               ]
            },
            "up" : {
               "uv" : [
                  0,
                  0,
                  1,
                  1
               ],
               "texture" : "#candle"
            },
            "down" : {
               "texture" : "#candle",
               "uv" : [
                  0,
                  0,
                  1,
                  1
               ]
            },
            "east" : {
               "texture" : "#candle",
               "uv" : [
                  0,
                  10,
                  1,
                  11
               ]
            },
            "west" : {
               "texture" : "#candle",
               "uv" : [
                  0,
                  11,
                  1,
                  12
               ]
            },
            "north" : {
               "texture" : "#candle",
               "uv" : [
                  0,
                  12,
                  1,
                  13
               ]
            }
         },
         "from" : [
            6,
            -1,
            2
         ],
         "to" : [
            7,
            0,
            3
         ]
      },
      {
         "to" : [
            7,
            0,
            6
         ],
         "from" : [
            6,
            -1,
            4
         ],
         "faces" : {
            "down" : {
               "uv" : [
                  0,
                  0,
                  1,
                  2
               ],
               "texture" : "#candle"
            },
            "up" : {
               "uv" : [
                  0,
                  0,
                  1,
                  2
               ],
               "texture" : "#candle"
            },
            "south" : {
               "texture" : "#candle",
               "uv" : [
                  0,
                  13,
                  1,
                  14
               ]
            },
            "west" : {
               "uv" : [
                  0,
                  11,
                  1,
                  12
               ],
               "texture" : "#candle"
            },
            "north" : {
               "uv" : [
                  0,
                  12,
                  1,
                  13
               ],
               "texture" : "#candle"
            },
            "east" : {
               "uv" : [
                  0,
                  10,
                  1,
                  11
               ],
               "texture" : "#candle"
            }
         }
      },
      {
         "to" : [
            11,
            0,
            6
         ],
         "from" : [
            9,
            -1,
            4
         ],
         "faces" : {
            "south" : {
               "texture" : "#candle",
               "uv" : [
                  0,
                  13,
                  2,
                  14
               ]
            },
            "up" : {
               "uv" : [
                  0,
                  0,
                  2,
                  2
               ],
               "texture" : "#candle"
            },
            "down" : {
               "uv" : [
                  0,
                  0,
                  2,
                  2
               ],
               "texture" : "#candle"
            },
            "east" : {
               "uv" : [
                  0,
                  10,
                  2,
                  11
               ],
               "texture" : "#candle"
            },
            "west" : {
               "uv" : [
                  0,
                  11,
                  2,
                  12
               ],
               "texture" : "#candle"
            },
            "north" : {
               "texture" : "#candle",
               "uv" : [
                  0,
                  12,
                  2,
                  13
               ]
            }
         }
      }
   ]
}
