{
   "elements" : [
      {
         "to" : [
            3,
            8,
            3
         ],
         "faces" : {
            "west" : {
               "texture" : "#candle"
            },
            "up" : {
               "texture" : "#candle"
            },
            "down" : {
               "texture" : "#candle"
            },
            "east" : {
               "texture" : "#candle"
            },
            "north" : {
               "texture" : "#candle"
            },
            "south" : {
               "texture" : "#candle"
            }
         },
         "from" : [
            0,
            0,
            0
         ]
      },
      {
         "faces" : {
            "east" : {
               "texture" : "#wick"
            },
            "north" : {
               "texture" : "#wick"
            },
            "down" : {
               "texture" : "#wick"
            },
            "up" : {
               "texture" : "#wick"
            },
            "west" : {
               "texture" : "#wick"
            },
            "south" : {
               "texture" : "#wick"
            }
         },
         "from" : [
            0,
            8,
            0
         ],
         "to" : [
            3,
            9,
            3
         ]
      }
   ],
   "ambientocclusion" : false,
   "textures" : {
      "wick" : "minefield:blocks/meche",
      "particle" : "minefield:blocks/bougie",
      "candle" : "minefield:blocks/bougie"
   }
}
