{
    "parent": "block/outer_stairs",
    "textures": {
        "bottom": "minefield:blocks/largebrick_copper",
        "top": "minefield:blocks/largebrick_copper",
        "side": "minefield:blocks/largebrick_copper"
    }
}
