{
    "parent": "block/stairs",
    "textures": {
        "bottom": "minefield:blocks/structure-cuivre",
        "top": "minefield:blocks/structure-cuivre",
        "side": "minefield:blocks/structure-cuivre"
    }
}
