{
   "ambientocclusion" : "false",
   "textures" : {
      "all" : "minefield:blocks/bloc-cuivre",
      "particle" : "minefield:blocks/bloc-cuivre"
   },
   "elements" : [
      {
         "from" : [
            -7,
            9,
            6.5
         ],
         "to" : [
            24,
            11,
            9.5
         ],
         "faces" : {
            "north" : {
               "texture" : "#all",
               "uv" : [
                  0,
                  0,
                  16,
                  2
               ]
            },
            "west" : {
               "uv" : [
                  5,
                  0,
                  8,
                  2
               ],
               "texture" : "#all"
            },
            "down" : {
               "texture" : "#all",
               "uv" : [
                  0,
                  0,
                  16,
                  3
               ]
            },
            "south" : {
               "uv" : [
                  0,
                  0,
                  16,
                  2
               ],
               "texture" : "#all"
            },
            "up" : {
               "texture" : "#all",
               "uv" : [
                  0,
                  0,
                  16,
                  3
               ]
            },
            "east" : {
               "texture" : "#all",
               "uv" : [
                  5,
                  0,
                  8,
                  2
               ]
            }
         }
      },
      {
         "from" : [
            -7,
            0,
            6.5
         ],
         "faces" : {
            "west" : {
               "uv" : [
                  5,
                  7,
                  8,
                  16
               ],
               "texture" : "#all"
            },
            "north" : {
               "uv" : [
                  0,
                  7,
                  2,
                  16
               ],
               "texture" : "#all"
            },
            "down" : {
               "uv" : [
                  12,
                  8,
                  14,
                  11
               ],
               "texture" : "#all"
            },
            "south" : {
               "uv" : [
                  0,
                  7,
                  2,
                  16
               ],
               "texture" : "#all"
            },
            "east" : {
               "uv" : [
                  5,
                  7,
                  8,
                  16
               ],
               "texture" : "#all"
            },
            "up" : {
               "texture" : "#all"
            }
         },
         "to" : [
            -5,
            9,
            9.5
         ]
      },
      {
         "to" : [
            -5,
            12,
            9
         ],
         "rotation" : {
            "angle" : -45,
            "origin" : [
               -5,
               2,
               8
            ],
            "axis" : "z"
         },
         "faces" : {
            "west" : {
               "uv" : [
                  5,
                  0,
                  7,
                  10
               ],
               "texture" : "#all"
            },
            "north" : {
               "uv" : [
                  0,
                  0,
                  2,
                  10
               ],
               "texture" : "#all"
            },
            "down" : {
               "texture" : "#all",
               "uv" : [
                  12,
                  8,
                  14,
                  10
               ]
            },
            "south" : {
               "uv" : [
                  0,
                  0,
                  2,
                  10
               ],
               "texture" : "#all"
            },
            "east" : {
               "uv" : [
                  5,
                  0,
                  7,
                  10
               ],
               "texture" : "#all"
            },
            "up" : {
               "uv" : [
                  12,
                  8,
                  14,
                  10
               ],
               "texture" : "#all"
            }
         },
         "from" : [
            -7,
            2,
            7
         ]
      },
      {
         "from" : [
            22,
            0,
            7
         ],
         "to" : [
            23,
            9,
            9
         ],
         "faces" : {
            "east" : {
               "texture" : "#all"
            },
            "up" : {
               "texture" : "#all"
            },
            "north" : {
               "uv" : [
                  0,
                  7,
                  1,
                  16
               ],
               "texture" : "#all"
            },
            "west" : {
               "texture" : "#all"
            },
            "south" : {
               "uv" : [
                  0,
                  7,
                  1,
                  16
               ],
               "texture" : "#all"
            },
            "down" : {
               "texture" : "#all",
               "uv" : [
                  12,
                  8,
                  13,
                  10
               ]
            }
         }
      }
   ]
}
