{
    "parent": "block/outer_stairs",
    "textures": {
        "bottom": "minefield:blocks/structure-darkoak",
        "top": "minefield:blocks/structure-darkoak",
        "side": "minefield:blocks/structure-darkoak"
    }
}
