{
    "parent": "minefield:block/inner_flat_stairs",
    "textures": {
        "bottom": "blocks/planks_big_oak",
        "top": "blocks/planks_big_oak",
        "side": "blocks/planks_big_oak"
    }
}
