{
    "__createdwith": "opl's Model Creator",
    "ambientocclusion": true,
    "textures": {
        "NORMAL": "minefield:blocks/four_souffleur_side",
        "PLAIN": "minefield:blocks/four_souffleur",
        "ON": "minefield:blocks/four_souffleur_front",
        "OFF": "minefield:blocks/four_souffleur_frontoff",
        "particle": "minefield:blocks/four_souffleur"
    },
    "elements": [
        {
            "from": [0,10,0],
            "to": [16,16,6],
            "faces": {
                "up": {
                    "texture": "#PLAIN"
                },
                "down": {
                    "uv": [0,5,16,11],
                    "texture": "#ON"
                },
                "west": {
                    "texture": "#PLAIN"
                },
                "east": {
                    "texture": "#PLAIN"
                },
                "north": {
                    "texture": "#PLAIN"
                },
                "south": {
                    "uv": [0,5,16,11],
                    "texture": "#ON"
                }
            }
        },
        {
            "from": [0,0,0],
            "to": [16,6,6],
            "faces": {
                "up": {
                    "uv": [0,5,16,11],
                    "texture": "#ON"
                },
                "down": {
                    "texture": "#NORMAL"
                },
                "west": {
                    "uv": [5,10,11,16],
                    "texture": "#PLAIN"
                },
                "east": {
                    "uv": [5,10,11,16],
                    "texture": "#PLAIN"
                },
                "north": {
                    "texture": "#PLAIN"
                },
                "south": {
                    "uv": [0,5,16,11],
                    "texture": "#PLAIN"
                }
            }
        },
        {
            "from": [0,0,10],
            "to": [16,6,16],
            "faces": {
                "up": {
                    "uv": [0,5,16,11],
                    "texture": "#ON"
                },
                "down": {
                    "uv": [0,5,16,11],
                    "texture": "#PLAIN"
                },
                "west": {
                    "texture": "#PLAIN"
                },
                "east": {
                    "texture": "#PLAIN"
                },
                "north": {
                    "uv": [0,5,16,11],
                    "texture": "#PLAIN"
                },
                "south": {
                    "texture": "#NORMAL"
                }
            }
        },
        {
            "from": [0,10,10],
            "to": [16,16,16],
            "faces": {
                "up": {
                    "uv": [0,5,16,11],
                    "texture": "#PLAIN"
                },
                "down": {
                    "uv": [0,5,16,11],
                    "texture": "#ON"
                },
                "west": {
                    "uv": [5,5,11,11],
                    "texture": "#PLAIN"
                },
                "east": {
                    "texture": "#PLAIN"
                },
                "north": {
                    "uv": [0,5,16,11],
                    "texture": "#ON"
                },
                "south": {
                    "uv": [0,5,16,11],
                    "texture": "#PLAIN"
                }
            }
        },
        {
            "from": [1,1,1],
            "to": [15,15,15],
            "faces": {
                "up": {
                    "texture": "#ON"
                },
                "down": {
                    "texture": "#NORMAL"
                },
                "west": {
                    "texture": "#ON"
                },
                "east": {
                    "texture": "#ON"
                },
                "north": {
                    "texture": "#ON"
                },
                "south": {
                    "texture": "#ON"
                }
            }
        }
    ]
}