{
    "__createdwith": "opl's Model Creator",
    "ambientocclusion": false,
    "textures": {
        "side": "minefield:blocks/furnace_glassblower_side",
        "top": "minefield:blocks/furnace_glassblower_top",
        "bottom": "minefield:blocks/furnace_glassblower_bottom",
        "rod": "minefield:blocks/furnace_glassblower_rod",
        "back": "minefield:blocks/furnace_glassblower_back",
        "particle": "minefield:blocks/furnace_glassblower_back",
        "front_light": "minefield:blocks/furnace_glassblower_front_lit"
    },
    "elements": [
        {
            "from": [5,0,14],
            "to": [6,15,15],
            "faces": {
                "up": {
                    "texture": "#top"
                },
                "down": {
                    "texture": "#bottom"
                },
                "west": {
                    "texture": "#front_light"
                },
                "east": {
                    "uv": [5.0,1.0,6.0,16.0],
                    "texture": "#rod"
                },
                "north": {
                    "texture": "#rod"
                },
                "south": {
                    "texture": "#rod"
                }
            }
        },
        {
            "from": [9,0,14],
            "to": [10,14,15],
            "faces": {
                "up": {
                    "texture": "#top"
                },
                "down": {
                    "texture": "#bottom"
                },
                "west": {
                    "texture": "#front_light"
                },
                "east": {
                    "uv": [13.0,2.0,14.0,16.0],
                    "texture": "#rod"
                },
                "north": {
                    "texture": "#rod"
                },
                "south": {
                    "texture": "#rod"
                }
            }
        },
        {
            "from": [13,0,14],
            "to": [14,16,15],
            "faces": {
                "up": {
                    "texture": "#top"
                },
                "down": {
                    "texture": "#bottom"
                },
                "west": {
                    "texture": "#front_light"
                },
                "east": {
                    "uv": [13.0,0.0,14.0,16.0],
                    "texture": "#rod"
                },
                "north": {
                    "texture": "#rod"
                },
                "south": {
                    "texture": "#rod"
                }
            }
        },
        {
            "from": [2,0,0],
            "to": [16,13,12],
            "faces": {
                "up": {
                    "uv": [2.0,0.0,16.0,11.0],
                    "texture": "#top"
                },
                "down": {
                    "uv": [2.0,0.0,16.0,11.0],
                    "texture": "#bottom"
                },
                "west": {
                    "texture": "#front_light"
                },
                "east": {
                    "texture": "#back"
                },
                "north": {
                    "texture": "#side"
                },
                "south": {
                    "texture": "#side"
                }
            }
        },
        {
            "from": [3,9,12],
            "to": [16,10,16],
            "faces": {
                "up": {
                    "texture": "#top"
                },
                "down": {
                    "texture": "#bottom"
                },
                "west": {
                    "texture": "#front_light"
                },
                "east": {
                    "texture": "#rod"
                },
                "north": {
                    "texture": "missingtexture"
                },
                "south": {
                    "texture": "#rod"
                }
            }
        },
        {
            "from": [2,13,1],
            "to": [16,15,11],
            "faces": {
                "up": {
                    "texture": "#top"
                },
                "down": {
                    "texture": "missingtexture"
                },
                "west": {
                    "texture": "#front_light"
                },
                "east": {
                    "texture": "#back"
                },
                "north": {
                    "texture": "#side"
                },
                "south": {
                    "texture": "#side"
                }
            }
        },
        {
            "from": [1,6,2],
            "to": [2,12,10],
            "faces": {
                "up": {
                    "uv": [1.0,1.0,2.0,9.0],
                    "texture": "#top"
                },
                "down": {
                    "uv": [1.0,1.0,2.0,9.0],
                    "texture": "#bottom"
                },
                "west": {
                    "texture": "#front_light"
                },
                "east": {
                    "texture": "missingtexture"
                },
                "north": {
                    "texture": "#side"
                },
                "south": {
                    "texture": "#side"
                }
            }
        },
        {
            "from": [1,7,1],
            "to": [2,11,2],
            "faces": {
                "up": {
                    "texture": "#top"
                },
                "down": {
                    "texture": "#bottom"
                },
                "west": {
                    "texture": "#front_light"
                },
                "east": {
                    "texture": "missingtexture"
                },
                "north": {
                    "texture": "#side"
                },
                "south": {
                    "texture": "missingtexture"
                }
            }
        }
    ]
}