{
    "parent": "block/half_slab",
    "textures": {
        "bottom": "minefield:blocks/brique-cuivre",
        "top": "minefield:blocks/brique-cuivre",
        "side": "minefield:blocks/brique-cuivre"
    }
}
