{
    "parent": "block/half_slab",
    "textures": {
        "bottom": "minefield:blocks/brique-laiton-tres-oxyde",
        "top": "minefield:blocks/brique-laiton-tres-oxyde",
        "side": "minefield:blocks/brique-laiton-tres-oxyde"
    }
}
