{
   "textures" : {
      "particle" : "minecraft:blocks/iron_block",
      "all" : "minecraft:blocks/iron_block"
   },
   "elements" : [
      {
         "to" : [
            24,
            16,
            9.5
         ],
         "faces" : {
            "south" : {
               "texture" : "#all",
               "uv" : [
                  0,
                  0,
                  16,
                  2
               ]
            },
            "down" : {
               "texture" : "#all",
               "uv" : [
                  0,
                  0,
                  16,
                  3
               ]
            },
            "west" : {
               "texture" : "#all",
               "uv" : [
                  5,
                  0,
                  8,
                  2
               ]
            },
            "north" : {
               "uv" : [
                  0,
                  0,
                  16,
                  2
               ],
               "texture" : "#all"
            },
            "up" : {
               "uv" : [
                  0,
                  0,
                  16,
                  3
               ],
               "texture" : "#all"
            },
            "east" : {
               "texture" : "#all",
               "uv" : [
                  5,
                  0,
                  8,
                  2
               ]
            }
         },
         "from" : [
            -9,
            14,
            6.5
         ]
      },
      {
         "to" : [
            -7,
            14,
            9.5
         ],
         "faces" : {
            "north" : {
               "uv" : [
                  0,
                  2,
                  2,
                  16
               ],
               "texture" : "#all"
            },
            "west" : {
               "texture" : "#all",
               "uv" : [
                  5,
                  2,
                  8,
                  16
               ]
            },
            "down" : {
               "uv" : [
                  12,
                  8,
                  14,
                  11
               ],
               "texture" : "#all"
            },
            "south" : {
               "texture" : "#all",
               "uv" : [
                  0,
                  2,
                  2,
                  16
               ]
            },
            "east" : {
               "texture" : "#all",
               "uv" : [
                  5,
                  2,
                  8,
                  16
               ]
            },
            "up" : {
               "texture" : "#all"
            }
         },
         "from" : [
            -9,
            0,
            6.5
         ]
      },
      {
         "rotation" : {
            "angle" : -45,
            "origin" : [
               -7,
               7,
               8
            ],
            "axis" : "z"
         },
         "to" : [
            -7,
            17,
            9
         ],
         "faces" : {
            "down" : {
               "uv" : [
                  12,
                  8,
                  14,
                  10
               ],
               "texture" : "#all"
            },
            "south" : {
               "uv" : [
                  0,
                  0,
                  2,
                  10
               ],
               "texture" : "#all"
            },
            "north" : {
               "uv" : [
                  0,
                  0,
                  2,
                  10
               ],
               "texture" : "#all"
            },
            "west" : {
               "uv" : [
                  5,
                  0,
                  7,
                  10
               ],
               "texture" : "#all"
            },
            "east" : {
               "texture" : "#all",
               "uv" : [
                  5,
                  0,
                  7,
                  10
               ]
            },
            "up" : {
               "uv" : [
                  12,
                  8,
                  14,
                  10
               ],
               "texture" : "#all"
            }
         },
         "from" : [
            -9,
            7,
            7
         ]
      }
   ],
   "ambientocclusion" : "false"
}
