{
   "textures" : {
      "particle" : "minecraft:blocks/planks_jungle",
      "all" : "minecraft:blocks/planks_jungle"
   },
   "elements" : [
      {
         "from" : [
            -15,
            9,
            6.5
         ],
         "faces" : {
            "up" : {
               "uv" : [
                  0,
                  0,
                  16,
                  3
               ],
               "texture" : "#all"
            },
            "east" : {
               "uv" : [
                  5,
                  0,
                  8,
                  2
               ],
               "texture" : "#all"
            },
            "south" : {
               "texture" : "#all",
               "uv" : [
                  0,
                  0,
                  16,
                  2
               ]
            },
            "down" : {
               "texture" : "#all",
               "uv" : [
                  0,
                  0,
                  16,
                  3
               ]
            },
            "west" : {
               "uv" : [
                  5,
                  0,
                  8,
                  2
               ],
               "texture" : "#all"
            },
            "north" : {
               "texture" : "#all",
               "uv" : [
                  0,
                  0,
                  16,
                  2
               ]
            }
         },
         "to" : [
            16,
            11,
            9.5
         ]
      },
      {
         "faces" : {
            "east" : {
               "texture" : "#all",
               "uv" : [
                  5,
                  7,
                  8,
                  16
               ]
            },
            "up" : {
               "texture" : "#all"
            },
            "down" : {
               "uv" : [
                  12,
                  8,
                  14,
                  11
               ],
               "texture" : "#all"
            },
            "south" : {
               "texture" : "#all",
               "uv" : [
                  0,
                  7,
                  2,
                  16
               ]
            },
            "west" : {
               "texture" : "#all",
               "uv" : [
                  5,
                  7,
                  8,
                  16
               ]
            },
            "north" : {
               "uv" : [
                  0,
                  7,
                  2,
                  16
               ],
               "texture" : "#all"
            }
         },
         "to" : [
            -13,
            9,
            9.5
         ],
         "from" : [
            -15,
            0,
            6.5
         ]
      },
      {
         "to" : [
            -13,
            12,
            9
         ],
         "rotation" : {
            "axis" : "z",
            "origin" : [
               -13,
               2,
               8
            ],
            "angle" : -45
         },
         "faces" : {
            "up" : {
               "uv" : [
                  12,
                  8,
                  14,
                  10
               ],
               "texture" : "#all"
            },
            "east" : {
               "texture" : "#all",
               "uv" : [
                  5,
                  0,
                  7,
                  10
               ]
            },
            "down" : {
               "texture" : "#all",
               "uv" : [
                  12,
                  8,
                  14,
                  10
               ]
            },
            "south" : {
               "texture" : "#all",
               "uv" : [
                  0,
                  0,
                  2,
                  10
               ]
            },
            "north" : {
               "uv" : [
                  0,
                  0,
                  2,
                  10
               ],
               "texture" : "#all"
            },
            "west" : {
               "texture" : "#all",
               "uv" : [
                  5,
                  0,
                  7,
                  10
               ]
            }
         },
         "from" : [
            -15,
            2,
            7
         ]
      }
   ],
   "ambientocclusion" : "false"
}
