{
    "__createdwith": "opl's Model Creator",
    "ambientocclusion": false,
    "textures": {
        "lantern_brass": "minefield:blocks/lantern_brass",
        "particle": "minefield:blocks/lantern_brass",
        "lanterne": "minefield:blocks/lantern_gray"
    },
    "elements": [
        {
            "from": [4.6,1,4.6],
            "to": [11.400001,2,11.400001],
            "faces": {
                "up": {
                    "uv": [4,4,11,11],
                    "texture": "#lantern_brass"
                },
                "down": {
                    "uv": [4,4,11,11],
                    "texture": "#lantern_brass"
                },
                "west": {
                    "uv": [4,10,11,11],
                    "texture": "#lantern_brass"
                },
                "east": {
                    "uv": [4.1000004,9,10.900002,10],
                    "texture": "#lantern_brass"
                },
                "north": {
                    "uv": [4,10,11,11],
                    "texture": "#lantern_brass"
                },
                "south": {
                    "uv": [4,10,11,11],
                    "texture": "#lantern_brass"
                }
            }
        },
        {
            "from": [4.5,11,4.5],
            "to": [11.5,12,11.5],
            "faces": {
                "up": {
                    "uv": [4,4,11,11],
                    "texture": "#lantern_brass"
                },
                "down": {
                    "uv": [4,4,11,11],
                    "texture": "#lantern_brass"
                },
                "west": {
                    "uv": [4,4,5,11],
                    "texture": "#lantern_brass",
                    "rotation": 90
                },
                "east": {
                    "uv": [10,4,11,11],
                    "texture": "#lantern_brass",
                    "rotation": 90
                },
                "north": {
                    "uv": [4,4,11,5],
                    "texture": "#lantern_brass"
                },
                "south": {
                    "uv": [4,10,11,11],
                    "texture": "#lantern_brass"
                }
            }
        },
        {
            "from": [4.5,0,4.5],
            "to": [5.5,11,5.5],
            "faces": {
                "down": {
                    "uv": [2,4,3,5],
                    "texture": "#lantern_brass"
                },
                "west": {
                    "uv": [3,4,4,15],
                    "texture": "#lantern_brass"
                },
                "east": {
                    "uv": [2,4,3,15],
                    "texture": "#lantern_brass"
                },
                "north": {
                    "uv": [3,4,4,15],
                    "texture": "#lantern_brass"
                },
                "south": {
                    "uv": [2,4,3,15],
                    "texture": "#lantern_brass"
                }
            }
        },
        {
            "from": [10.5,0,4.5],
            "to": [11.5,11,5.5],
            "faces": {
                "down": {
                    "uv": [12,4,13,5],
                    "texture": "#lantern_brass"
                },
                "west": {
                    "uv": [1,3,2,14],
                    "texture": "#lantern_brass"
                },
                "east": {
                    "uv": [2,3,3,14],
                    "texture": "#lantern_brass"
                },
                "north": {
                    "uv": [11,3,12,14],
                    "texture": "#lantern_brass"
                },
                "south": {
                    "uv": [13,3,14,14],
                    "texture": "#lantern_brass"
                }
            }
        },
        {
            "from": [4.5,12,7.5],
            "to": [5.5,15,8.5],
            "faces": {
                "up": {
                    "uv": [2,5,3,6],
                    "texture": "#lantern_brass"
                },
                "west": {
                    "uv": [2,10,3,13],
                    "texture": "#lantern_brass"
                },
                "east": {
                    "uv": [2,10,3,13],
                    "texture": "#lantern_brass"
                },
                "north": {
                    "uv": [2,10,3,13],
                    "texture": "#lantern_brass"
                },
                "south": {
                    "uv": [2,10,3,13],
                    "texture": "#lantern_brass"
                }
            }
        },
        {
            "from": [5.5,14,7.5],
            "to": [10.5,16,8.5],
            "faces": {
                "up": {
                    "uv": [0,12,5,13],
                    "texture": "#lantern_brass"
                },
                "down": {
                    "uv": [5,12,10,13],
                    "texture": "#lantern_brass"
                },
                "west": {
                    "uv": [15,12,16,13],
                    "texture": "#lantern_brass"
                },
                "east": {
                    "uv": [2,12,3,13],
                    "texture": "#lantern_brass"
                },
                "north": {
                    "uv": [1,12,6,14],
                    "texture": "#lantern_brass"
                },
                "south": {
                    "uv": [4,12,9,14],
                    "texture": "#lantern_brass"
                }
            }
        },
        {
            "from": [5.5,2,5.5],
            "to": [10.5,11,10.5],
            "faces": {
                "west": {
                    "uv": [5,3,10,12],
                    "texture": "#lanterne"
                },
                "east": {
                    "uv": [5,3,10,12],
                    "texture": "#lanterne"
                },
                "north": {
                    "uv": [5,3,10,12],
                    "texture": "#lanterne"
                },
                "south": {
                    "uv": [5,3,10,12],
                    "texture": "#lanterne"
                }
            }
        },
        {
            "from": [10.5,0,10.5],
            "to": [11.5,11,11.5],
            "faces": {
                "down": {
                    "uv": [13,5,14,6],
                    "texture": "#lantern_brass"
                },
                "west": {
                    "uv": [3,4,4,15],
                    "texture": "#lantern_brass"
                },
                "east": {
                    "uv": [2,4,3,15],
                    "texture": "#lantern_brass"
                },
                "north": {
                    "uv": [3,4,4,15],
                    "texture": "#lantern_brass"
                },
                "south": {
                    "uv": [2,4,3,15],
                    "texture": "#lantern_brass"
                }
            }
        },
        {
            "from": [4.5,0,10.5],
            "to": [5.5,11,11.5],
            "faces": {
                "down": {
                    "uv": [2,4,3,5],
                    "texture": "#lantern_brass"
                },
                "west": {
                    "uv": [1,3,2,14],
                    "texture": "#lantern_brass"
                },
                "east": {
                    "uv": [2,3,3,14],
                    "texture": "#lantern_brass"
                },
                "north": {
                    "uv": [11,3,12,14],
                    "texture": "#lantern_brass"
                },
                "south": {
                    "uv": [13,3,14,14],
                    "texture": "#lantern_brass"
                }
            }
        },
        {
            "from": [10.5,12,7.5],
            "to": [11.5,15,8.5],
            "faces": {
                "up": {
                    "uv": [2,5,3,6],
                    "texture": "#lantern_brass"
                },
                "west": {
                    "uv": [2,10,3,13],
                    "texture": "#lantern_brass"
                },
                "east": {
                    "uv": [2,10,3,13],
                    "texture": "#lantern_brass"
                },
                "north": {
                    "uv": [2,10,3,13],
                    "texture": "#lantern_brass"
                },
                "south": {
                    "uv": [2,10,3,13],
                    "texture": "#lantern_brass"
                }
            }
        }
    ]
}