{
    "parent": "minefield:block/large_vase",
    "textures": {
        "side": "minefield:blocks/large_vase_oxidized_copper_side",
        "top": "minefield:blocks/large_vase_oxidized_copper_top",
        "bottom": "minefield:blocks/large_vase_oxidized_copper_bottom"
    }
}
