{
    "parent": "minefield:block/large_vase_cross",
    "textures": {
        "side": "minefield:blocks/large_vase_jungle_side",
        "top": "minefield:blocks/large_vase_jungle_top",
        "bottom": "minefield:blocks/large_vase_jungle_bottom"
    }
}
