{
    "parent": "block/outer_stairs",
    "textures": {
        "bottom": "minecraft:blocks/planks_birch",
        "top": "minecraft:blocks/planks_birch",
        "side": "minecraft:blocks/planks_birch"
    }
}
