{
    "parent": "block/inner_stairs",
    "textures": {
        "bottom": "minecraft:blocks/planks_jungle",
        "top": "minecraft:blocks/planks_jungle",
        "side": "minecraft:blocks/planks_jungle"
    }
}
