{
   "elements" : [
      {
         "from" : [
            -8,
            9,
            6.5
         ],
         "to" : [
            16,
            11,
            9.5
         ],
         "faces" : {
            "south" : {
               "texture" : "#all",
               "uv" : [
                  0,
                  0,
                  16,
                  2
               ]
            },
            "down" : {
               "uv" : [
                  0,
                  0,
                  16,
                  3
               ],
               "texture" : "#all"
            },
            "west" : {
               "texture" : "#all",
               "uv" : [
                  5,
                  0,
                  8,
                  2
               ]
            },
            "north" : {
               "uv" : [
                  0,
                  0,
                  16,
                  2
               ],
               "texture" : "#all"
            },
            "east" : {
               "texture" : "#all",
               "uv" : [
                  5,
                  0,
                  8,
                  2
               ]
            },
            "up" : {
               "uv" : [
                  0,
                  0,
                  16,
                  3
               ],
               "texture" : "#all"
            }
         }
      },
      {
         "faces" : {
            "up" : {
               "texture" : "#all"
            },
            "east" : {
               "uv" : [
                  5,
                  7,
                  8,
                  16
               ],
               "texture" : "#all"
            },
            "north" : {
               "texture" : "#all",
               "uv" : [
                  0,
                  7,
                  2,
                  16
               ]
            },
            "west" : {
               "uv" : [
                  5,
                  7,
                  8,
                  16
               ],
               "texture" : "#all"
            },
            "south" : {
               "uv" : [
                  0,
                  7,
                  2,
                  16
               ],
               "texture" : "#all"
            },
            "down" : {
               "uv" : [
                  12,
                  8,
                  14,
                  11
               ],
               "texture" : "#all"
            }
         },
         "to" : [
            -6,
            9,
            9.5
         ],
         "from" : [
            -8,
            0,
            6.5
         ]
      },
      {
         "from" : [
            -8,
            2,
            7
         ],
         "to" : [
            -6,
            12,
            9
         ],
         "rotation" : {
            "origin" : [
               -6,
               2,
               8
            ],
            "axis" : "z",
            "angle" : -45
         },
         "faces" : {
            "up" : {
               "uv" : [
                  12,
                  8,
                  14,
                  10
               ],
               "texture" : "#all"
            },
            "east" : {
               "texture" : "#all",
               "uv" : [
                  5,
                  0,
                  7,
                  10
               ]
            },
            "north" : {
               "texture" : "#all",
               "uv" : [
                  0,
                  0,
                  2,
                  10
               ]
            },
            "west" : {
               "texture" : "#all",
               "uv" : [
                  5,
                  0,
                  7,
                  10
               ]
            },
            "down" : {
               "texture" : "#all",
               "uv" : [
                  12,
                  8,
                  14,
                  10
               ]
            },
            "south" : {
               "texture" : "#all",
               "uv" : [
                  0,
                  0,
                  2,
                  10
               ]
            }
         }
      }
   ],
   "textures" : {
      "particle" : "minefield:blocks/bloc-cuivre-oxyde",
      "all" : "minefield:blocks/bloc-cuivre-oxyde"
   },
   "ambientocclusion" : "false"
}
