{
    "parent": "minefield:block/inner_flat_stairs",
    "textures": {
        "bottom": "minefield:blocks/paille",
        "top": "minefield:blocks/paille",
        "side": "minefield:blocks/paille"
    }
}
