{
    "__createdwith": "opl's Model Creator",
    "ambientocclusion": false,
    "textures": {
        "side": "minefield:blocks/lampion-blanc",
        "top": "minefield:blocks/lampion-blanc",
        "bottom": "minefield:blocks/lampion-blanc",
        "particle": "minefield:blocks/lampion-blanc"
    },
    "elements": [
        {
            "from": [4,0,4],
            "to": [12,16,12],
            "faces": {
                "up": {
                    "uv": [8,8,16,16],
                    "texture": "#top"
                },
                "down": {
                    "uv": [8,0,16,8],
                    "texture": "#bottom"
                },
                "west": {
                    "uv": [0,0,8,16],
                    "texture": "#side"
                },
                "east": {
                    "uv": [0,0,8,16],
                    "texture": "#side"
                },
                "north": {
                    "uv": [0,0,8,16],
                    "texture": "#side"
                },
                "south": {
                    "uv": [0,0,8,16],
                    "texture": "#side"
                }
            }
        }
    ]
}