{
    "__createdwith": "opl's Model Creator",
    "ambientocclusion": false,
    "textures": {
        "particle": "blocks/portal",
        "portal": "blocks/portal"
    },
    "elements": [
        {
            "from": [0,0,7],
            "to": [16,16,9],
            "faces": {
                "up": {
                    "texture": "#portal"
                },
                "down": {
                    "texture": "#portal"
                },
                "west": {
                    "texture": "#portal"
                },
                "east": {
                    "texture": "#portal"
                },
                "north": {
                    "texture": "#portal"
                },
                "south": {
                    "texture": "#portal"
                }
            }
        }
    ]
}