{
    "__createdwith": "opl's Model Creator",
    "ambientocclusion": false,
    "textures": {
        "left ": "minefield:blocks/squelette-face-gauche",
        "particle": "minefield:blocks/squelette-dos",
        "face": "minefield:blocks/squelette-face",
        "back": "minefield:blocks/squelette-dos",
        "bougie": "minefield:blocks/bougie",
        "right": "minefield:blocks/squelette-face-droite"
    },
    "elements": [
        {
            "from": [0,15,0],
            "to": [16,16,16],
            "faces": {
                "up": {
                    "texture": "#back"
                },
                "down": {
                    "uv": [16,0,0,16],
                    "texture": "#back"
                },
                "west": {
                    "texture": "#left "
                },
                "east": {
                    "texture": "#right"
                },
                "north": {
                    "texture": "#face"
                },
                "south": {
                    "uv": [0,16,16,15],
                    "texture": "#back"
                }
            }
        },
        {
            "from": [0,4,0],
            "to": [16,6,1],
            "faces": {
                "up": {
                    "uv": [0,4,16,5],
                    "texture": "#right"
                },
                "down": {
                    "uv": [0,2,16,3],
                    "texture": "#right"
                },
                "west": {
                    "texture": "#left "
                },
                "east": {
                    "texture": "#right"
                },
                "north": {
                    "texture": "#face"
                }
            }
        },
        {
            "from": [0,0,0],
            "to": [16,1,16],
            "faces": {
                "up": {
                    "texture": "#back"
                },
                "down": {
                    "uv": [16,0,0,16],
                    "texture": "#back"
                },
                "west": {
                    "texture": "#left "
                },
                "east": {
                    "texture": "#right"
                },
                "north": {
                    "texture": "#face"
                },
                "south": {
                    "uv": [0,1,16,0],
                    "texture": "#back"
                }
            }
        },
        {
            "from": [0,8,0],
            "to": [16,15,1],
            "faces": {
                "down": {
                    "uv": [0,4,16,5],
                    "texture": "#right"
                },
                "west": {
                    "texture": "#left "
                },
                "east": {
                    "texture": "#right"
                },
                "north": {
                    "texture": "#face"
                }
            }
        },
        {
            "from": [0,1,0],
            "to": [2,4,1],
            "faces": {
                "west": {
                    "texture": "#left "
                },
                "east": {
                    "uv": [8,9,9,12],
                    "texture": "#back"
                },
                "north": {
                    "texture": "#face"
                }
            }
        },
        {
            "from": [14,1,0],
            "to": [16,4,1],
            "faces": {
                "west": {
                    "uv": [12,4,13,7],
                    "texture": "#back"
                },
                "east": {
                    "texture": "#right"
                },
                "north": {
                    "texture": "#face"
                }
            }
        },
        {
            "from": [14,6,0],
            "to": [16,8,1],
            "faces": {
                "west": {
                    "uv": [1,7,2,9],
                    "texture": "#back"
                },
                "east": {
                    "texture": "#right"
                },
                "north": {
                    "texture": "#face"
                }
            }
        },
        {
            "from": [0,6,0],
            "to": [2,8,1],
            "faces": {
                "west": {
                    "texture": "#left "
                },
                "east": {
                    "texture": "#back"
                },
                "north": {
                    "texture": "#face"
                }
            }
        },
        {
            "from": [6,6,0],
            "to": [10,8,1],
            "faces": {
                "north": {
                    "texture": "#face"
                }
            }
        },
        {
            "from": [0,1,15],
            "to": [16,15,16],
            "faces": {
                "west": {
                    "texture": "#left "
                },
                "east": {
                    "texture": "#right"
                },
                "north": {
                    "uv": [0,15,16,1],
                    "texture": "#back"
                },
                "south": {
                    "uv": [0,15,16,1],
                    "texture": "#back"
                }
            }
        },
        {
            "from": [0,1,1],
            "to": [1,15,15],
            "faces": {
                "west": {
                    "texture": "#left "
                },
                "east": {
                    "texture": "#left "
                }
            }
        },
        {
            "from": [15,1,1],
            "to": [16,15,15],
            "faces": {
                "west": {
                    "texture": "#right"
                },
                "east": {
                    "texture": "#right"
                }
            }
        },
        {
            "from": [6,1,6],
            "to": [9,8,9],
            "faces": {
                "up": {
                    "uv": [6,5,9,8],
                    "texture": "#bougie"
                },
                "west": {
                    "uv": [5,5,8,12],
                    "texture": "#bougie"
                },
                "east": {
                    "uv": [3,6,6,13],
                    "texture": "#bougie"
                },
                "north": {
                    "uv": [4,7,7,14],
                    "texture": "#bougie"
                },
                "south": {
                    "uv": [7,5,10,12],
                    "texture": "#bougie"
                }
            }
        },
        {
            "from": [7,8,7],
            "to": [8,9,8],
            "faces": {
                "up": {
                    "uv": [14,1,15,2],
                    "texture": "#bougie"
                },
                "down": {
                    "texture": "missingtexture"
                },
                "west": {
                    "uv": [14,1,15,2],
                    "texture": "#bougie"
                },
                "east": {
                    "uv": [14,1,15,2],
                    "texture": "#bougie"
                },
                "north": {
                    "uv": [14,1,15,2],
                    "texture": "#bougie"
                },
                "south": {
                    "uv": [14,1,15,2],
                    "texture": "#bougie"
                }
            }
        },
        {
            "from": [5,1,5],
            "to": [6,2,6],
            "faces": {
                "up": {
                    "uv": [5,7,6,8],
                    "texture": "#bougie"
                },
                "down": {
                    "texture": "missingtexture"
                },
                "west": {
                    "uv": [4,7,5,8],
                    "texture": "#bougie"
                },
                "east": {
                    "uv": [5,6,6,7],
                    "texture": "#bougie"
                },
                "north": {
                    "uv": [5,6,6,7],
                    "texture": "#bougie"
                },
                "south": {
                    "uv": [5,2,6,3],
                    "texture": "#bougie"
                }
            }
        },
        {
            "from": [9,1,6],
            "to": [10,2,8],
            "faces": {
                "up": {
                    "uv": [5,7,6,8],
                    "texture": "#bougie"
                },
                "down": {
                    "texture": "missingtexture"
                },
                "west": {
                    "uv": [4,7,5,8],
                    "texture": "#bougie"
                },
                "east": {
                    "uv": [5,7,7,8],
                    "texture": "#bougie"
                },
                "north": {
                    "uv": [5,6,6,7],
                    "texture": "#bougie"
                },
                "south": {
                    "uv": [5,2,6,3],
                    "texture": "#bougie"
                }
            }
        },
        {
            "from": [8,1,5],
            "to": [9,3,6],
            "faces": {
                "up": {
                    "uv": [5,7,6,8],
                    "texture": "#bougie"
                },
                "down": {
                    "texture": "missingtexture"
                },
                "west": {
                    "uv": [4,7,5,8],
                    "texture": "#bougie"
                },
                "east": {
                    "uv": [6,7,7,9],
                    "texture": "#bougie"
                },
                "north": {
                    "uv": [5,6,6,8],
                    "texture": "#bougie"
                },
                "south": {
                    "uv": [5,2,6,3],
                    "texture": "#bougie"
                }
            }
        }
    ]
}
