{
    "__createdwith": "opl's Model Creator",
    "ambientocclusion": false,
    "textures": {
        "snow": "blocks/snow",
        "particle": "blocks/snow"
    },
    "elements": [
        {
            "from": [0,-8,0],
            "to": [16,-2,8],
            "faces": {
                "up": {
                    "texture": "#snow"
                },
                "west": {
                    "uv": [0,10,8,16],
                    "texture": "#snow"
                },
                "east": {
                    "uv": [0,10,8,16],
                    "texture": "#snow"
                },
                "north": {
                    "uv": [0,10,16,16],
                    "texture": "#snow"
                }
            }
        },
        {
            "from": [0,-8,8],
            "to": [8,-2,16],
            "faces": {
                "up": {
                    "texture": "#snow"
                },
                "west": {
                    "uv": [8,10,16,16],
                    "texture": "#snow"
                },
                "south": {
                    "uv": [0,10,9,16],
                    "texture": "#snow"
                }
            }
        },
        {
            "from": [8,0,8],
            "to": [16,6,16],
            "faces": {
                "up": {
                    "texture": "#snow"
                },
                "west": {
                    "texture": "#snow"
                },
                "east": {
                    "texture": "#snow"
                },
                "north": {
                    "texture": "#snow"
                },
                "south": {
                    "texture": "#snow"
                }
            }
        }
    ]
}