{
    "parent": "minefield:block/leaves_inner_stairs",
    "textures": {
        "bottom": "blocks/leaves_spruce",
        "top": "blocks/leaves_spruce",
        "side": "blocks/leaves_spruce"
    }
}
