{
    "parent": "block/inner_stairs",
    "textures": {
        "bottom": "minefield:blocks/grille-acier",
        "top": "minefield:blocks/grille-acier",
        "side": "minefield:blocks/grille-acier"
    }
}
