{
    "parent": "block/stairs",
    "textures": {
        "bottom": "minefield:blocks/brique-acier",
        "top": "minefield:blocks/brique-acier",
        "side": "minefield:blocks/brique-acier"
    }
}
