{
    "parent": "block/stairs",
    "textures": {
        "bottom": "minefield:blocks/structure-acier",
        "top": "minefield:blocks/structure-acier",
        "side": "minefield:blocks/structure-acier"
    }
}
