{
    "parent": "block/upper_slab",
    "textures": {
        "bottom": "minefield:blocks/marble_brick_01",
        "top": "minefield:blocks/marble_brick_01",
        "side": "minefield:blocks/marble_brick_01"
    }
}
