{
    "parent": "block/upper_slab",
    "textures": {
        "bottom": "minefield:blocks/brique-cuivre-oxyde",
        "top": "minefield:blocks/brique-cuivre-oxyde",
        "side": "minefield:blocks/brique-cuivre-oxyde"
    }
}
