{
    "parent": "block/upper_slab",
    "textures": {
        "bottom": "minecraft:blocks/log_big_oak_top",
        "top": "minecraft:blocks/log_big_oak_top",
        "side": "minecraft:blocks/log_big_oak"
    }
}
