{
    "parent": "block/upper_slab",
    "textures": {
        "bottom": "minefield:blocks/largebrick_very_oxidized_copper",
        "top": "minefield:blocks/largebrick_very_oxidized_copper",
        "side": "minefield:blocks/largebrick_very_oxidized_copper"
    }
}
