{
    "parent": "block/upper_slab",
    "textures": {
        "bottom": "minecraft:blocks/log_birch_top",
        "top": "minecraft:blocks/log_birch_top",
        "side": "minecraft:blocks/log_birch"
    }
}
