{
    "parent": "minefield:block/vase",
    "textures": {
        "side": "minefield:blocks/vase-laiton-side",
        "top": "minefield:blocks/vase-laiton-top",
        "bottom": "minefield:blocks/vase-laiton-bottom"
    }
}
