{
    "parent": "minefield:block/vase_cross",
    "textures": {
        "side": "minefield:blocks/vase-jungle-side",
        "top": "minefield:blocks/vase-jungle-top",
        "bottom": "minefield:blocks/vase-jungle-bottom"
    }
}
