{
    "parent": "minefield:block/vase",
    "textures": {
        "side": "minefield:blocks/vase-bois-side",
        "top": "minefield:blocks/vase-bois-top",
        "bottom": "minefield:blocks/vase-bois-bottom"
    }
}
