{
    "parent": "minefield:block/vase",
    "textures": {
        "side": "minefield:blocks/vase-cuivre-side",
        "top": "minefield:blocks/vase-cuivre-top",
        "bottom": "minefield:blocks/vase-cuivre-bottom"
    }
}
