{
    "parent": "minefield:block/vase_cross",
    "textures": {
        "side": "minefield:blocks/vase-pine-side",
        "top": "minefield:blocks/vase-pine-top",
        "bottom": "minefield:blocks/vase-pine-bottom"
    }
}
