{
    "parent": "minefield:block/sign_vertical",
    "textures": {
        "particle": "minefield:blocks/sign-unknown",
        "face": "minefield:blocks/sign-mage",
        "side": "minefield:blocks/sign-cerclage"
    }
}
