{
    "parent": "block/stairs",
    "textures": {
        "bottom": "minefield:blocks/bloc-cuivre-tres-oxyde",
        "top": "minefield:blocks/bloc-cuivre-tres-oxyde",
        "side": "minefield:blocks/bloc-cuivre-tres-oxyde"
    }
}
