{
   "ambientocclusion" : "false",
   "elements" : [
      {
         "from" : [
            0,
            14,
            6.5
         ],
         "faces" : {
            "down" : {
               "texture" : "#all",
               "uv" : [
                  0,
                  0,
                  16,
                  3
               ]
            },
            "south" : {
               "uv" : [
                  0,
                  0,
                  16,
                  2
               ],
               "texture" : "#all"
            },
            "north" : {
               "uv" : [
                  0,
                  0,
                  16,
                  2
               ],
               "texture" : "#all"
            },
            "west" : {
               "uv" : [
                  5,
                  0,
                  8,
                  2
               ],
               "texture" : "#all"
            },
            "up" : {
               "texture" : "#all",
               "uv" : [
                  0,
                  0,
                  16,
                  3
               ]
            },
            "east" : {
               "uv" : [
                  5,
                  0,
                  8,
                  2
               ],
               "texture" : "#all"
            }
         },
         "to" : [
            16,
            16,
            9.5
         ]
      },
      {
         "from" : [
            0,
            0,
            6.5
         ],
         "faces" : {
            "east" : {
               "uv" : [
                  5,
                  2,
                  8,
                  16
               ],
               "texture" : "#all"
            },
            "up" : {
               "texture" : "#all"
            },
            "south" : {
               "uv" : [
                  0,
                  2,
                  2,
                  16
               ],
               "texture" : "#all"
            },
            "down" : {
               "texture" : "#all",
               "uv" : [
                  12,
                  8,
                  14,
                  11
               ]
            },
            "west" : {
               "uv" : [
                  5,
                  2,
                  8,
                  16
               ],
               "texture" : "#all"
            },
            "north" : {
               "uv" : [
                  0,
                  2,
                  2,
                  16
               ],
               "texture" : "#all"
            }
         },
         "to" : [
            2,
            14,
            9.5
         ]
      },
      {
         "from" : [
            0,
            7,
            7
         ],
         "to" : [
            2,
            17,
            9
         ],
         "rotation" : {
            "angle" : -45,
            "axis" : "z",
            "origin" : [
               2,
               7,
               8
            ]
         },
         "faces" : {
            "up" : {
               "uv" : [
                  12,
                  8,
                  14,
                  10
               ],
               "texture" : "#all"
            },
            "east" : {
               "texture" : "#all",
               "uv" : [
                  5,
                  0,
                  7,
                  10
               ]
            },
            "west" : {
               "texture" : "#all",
               "uv" : [
                  5,
                  0,
                  7,
                  10
               ]
            },
            "north" : {
               "texture" : "#all",
               "uv" : [
                  0,
                  0,
                  2,
                  10
               ]
            },
            "down" : {
               "texture" : "#all",
               "uv" : [
                  12,
                  8,
                  14,
                  10
               ]
            },
            "south" : {
               "uv" : [
                  0,
                  0,
                  2,
                  10
               ],
               "texture" : "#all"
            }
         }
      }
   ],
   "textures" : {
      "particle" : "minefield:blocks/bloc-cuivre-tres-oxyde",
      "all" : "minefield:blocks/bloc-cuivre-tres-oxyde"
   }
}
