{
    "parent": "minefield:block/sign_wall",
    "textures": {
        "particle": "minefield:blocks/sign-unknown",
        "face": "minefield:blocks/sign-ingenieur",
        "side": "minefield:blocks/sign-cerclage"
    }
}
