{
    "parent": "minefield:block/sign_wall",
    "textures": {
        "particle": "minefield:blocks/sign-unknown-alt",
        "face": "minefield:blocks/sign-herboriste-alt",
        "side": "minefield:blocks/sign-cerclage-alt"
    }
}
